{
  "feed_metadata": {
    "month": 2,
    "day_numerator": 25,
    "day_denominator": 30,
    "points": 1800
  },
  "quick_activity": {
    "id": "2d3c6302-16e8-4167-8b64-9e09782d7735",
    "position": 1,
    "type": "ema"
  },
  "feed_sections": [
    {
      "id": "2d3c6302-16e8-4167-8b66-9e09782d7735",
      "position": 2,
      "title": "Yesterday",
      "tiles": [
        {
          "id": "2d3c6302-16e8-4167-8b64-9e09782d7737",
          "position": 1,
          "type": "info",
          "content": "We didn't get any steps from your Empatica Embrace yesterday. Sync now or click to visit the FAQ page for help",
          "contents": {
            "heading": "We didn't get any steps from your Empatica Embrace yesterday",
            "body": "Sync now or click to visit the FAQ page for help",
            "alignment": "left"
          },
          "button": {
            "label": "See FAQ",
            "click_action": {
              "type": "faq"
            }
          },
          "style_class": "alert-style"
        },
        {
          "id": "2d3c6902-16e8-4167-8b64-9e09782d7736",
          "position": 2,
          "type": "task",
          "icon": "trail-making",
          "content": "It's time for a Trail Making task",
          "contents": {
            "heading": "It's time for a Trail Making task",
            "alignment": "center"
          },
          "button": {
            "label": "Start now",
            "click_action": {
              "task_name": "trail-making-task",
              "task_id": "d1e31119-fb48-4d25-b9cb-a2f6ecd9641a",
              "task_details": [
                {
                  "id": "9f8118e4-a13b-48c6-be33-58199d9ec07a",
                  "name": "intro",
                  "position": 1,
                  "type": "info",
                  "content": "<h1>About this activity<\/h1><p>Every other day, we'll ask you to complete this task in which you'll tap a sequence of dots.<\/p><h1>Why this activity?<\/h1><p>This activity will help us understand your stress level by evaluating your visual attention and task switching.<\/p>",
                  "content_type": "text/html",
                  "style_class": "light-style",
                  "title": "Trail Making Task",
                  "reminder_button": {
                    "label": "Remind me again in an hour"
                  },
                  "button": {
                    "label": "Let's start"
                  }
                },
                {
                  "id": "52fc9a42-d0dc-40a7-bf1e-954a4318ba6b",
                  "name": "trail-making-task",
                  "position": 2,
                  "options": {
                    "trailType": "ORKTrailMakingTypeIdentifierB",
                    "intendedUseDescription": "We'll do X and Y with the data we collect",
                    "trailmakingInstruction": "Do this as quickly as you can without making mistakes"
                  }
                },
                {
                  "id": "9f8118e4-a13b-48c6-be33-58199d9ec07b",
                  "name": "outro",
                  "position": 3,
                  "type": "info",
                  "content": "You've earned 10 points",
                  "content_type": "text/plain",
                  "style_class": "light-style",
                  "title": "Thanks!"
                }
              ]
            }
          },
          "style_class": "light-style"
        },
        {
          "id": "2d3c6303-16e8-4167-8b64-9e09782d7736",
          "position": 3,
          "type": "task",
          "icon": "check-list",
          "content": "It's time to take today's survey",
          "contents": {
            "heading": "It's time to take today's survey",
            "alignment": "center"
          },
          "button": {
            "label": "Start now",
            "click_action": {
              "task_name": "survey",
              "task_id": "3d3c6302-16e8-4167-8b64-9e09782d7736",
              "task_details": [
                {
                  "id": "9f8158e4-a13b-48c6-be33-58199d9ec07a",
                  "name": "intro",
                  "position": 1,
                  "type": "info",
                  "content": "<p>You are about to start a survey that asks about your daily symptoms. It is 2 questions and will take about 30 seconds to complete.<\/p>",
                  "content_type": "text/html",
                  "style_class": "light-style",
                  "title": "Daily survey",
                  "button": {
                    "label": "Let's start"
                  }
                },
                {
                  "id": "52fc9a41-d0dc-40a7-bf1f-954a4318ba6b",
                  "name": "survey",
                  "position": 2,
                  "format": "one-screen-per-question",
                  "questions": [
                    {
                      "id": "7a9be1bf-4f50-425e-8856-a09fc92c3619",
                      "value": "q1",
                      "position": 1,
                      "content": "How many liquid or very soft stools did you have today?",
                      "content_type": "text/plain",
                      "question_type": "numerical",
                      "style_class": "light-style",
                      "details": {
                        "min": 0,
                        "max": 20,
                        "max_display": "More than 20"
                      }
                    },
                    {
                      "id": "7a9be1bf-4f51-415e-8856-a09fc92c3619",
                      "value": "q2",
                      "position": 2,
                      "content": "Please rate your abdominal pain today",
                      "content_type": "text/plain",
                      "question_type": "pick-one",
                      "style_class": "light-style",
                      "options": [
                        {
                          "id": "c7f81d4c-9011-4838-8e98-5c5137193dda",
                          "position": 1,
                          "value": "a1",
                          "content": "0=none",
                          "content_type": "text/plain"
                        },
                        {
                          "id": "04aea610-6861-4773-abeb-c5da93371fc0",
                          "position": 2,
                          "value": "a2",
                          "content": "1=mild",
                          "content_type": "text/plain"
                        },
                        {
                          "id": "464ad017-4da4-4f37-a0de-2cd13b57f9ba",
                          "position": 3,
                          "value": "a3",
                          "content": "2=moderate",
                          "content_type": "text/plain"
                        },
                        {
                          "id": "15291e64-9b70-4fa8-bc71-89a30ca0854d",
                          "position": 4,
                          "value": "a4",
                          "content": "3=severe",
                          "content_type": "text/plain"
                        }
                      ]
                    }
                  ]
                },
                {
                  "id": "9f8118f4-a13b-48c6-be33-58199d9ec07b",
                  "name": "intro",
                  "position": 3,
                  "type": "info",
                  "content": "Next we'll ask you a few questions about yourself",
                  "content_type": "text/plain",
                  "style_class": "light-style"
                },
                {
                  "id": "52fc9a42-v0dc-40a7-bf1e-954a4318ba6b",
                  "name": "survey",
                  "position": 4,
                  "format": "one-screen-per-question",
                  "questions": [
                    {
                      "id": "7a9be1cf-4f51-415e-8856-a09fc92c3619",
                      "value": "q1",
                      "position": 1,
                      "content": "What is the highest level of education you have completed?",
                      "content_type": "text/plain",
                      "question_type": "pick-one",
                      "style_class": "light-style",
                      "options": [
                        {
                          "id": "d7f81d4c-9011-4838-8e98-5c5137193dda",
                          "position": 1,
                          "value": "a1",
                          "content": "High school or secondary school diploma or equivalent (e.g. GED, GCSE)",
                          "content_type": "text/plain"
                        },
                        {
                          "id": "14aea610-6861-4773-abeb-c5da93371fc0",
                          "position": 2,
                          "value": "a2",
                          "content": "Some college or university, no degree",
                          "content_type": "text/plain"
                        },
                        {
                          "id": "564ad017-4da4-4f37-a0de-2cd13b57f9ba",
                          "position": 3,
                          "value": "a3",
                          "content": "Associate's / Senior Secondary / Vocational / Foundational School degree (e.g. AA, AS, FdA, FdS)",
                          "content_type": "text/plain"
                        },
                        {
                          "id": "25291e64-9b70-4fa8-bc71-89a30ca0854d",
                          "position": 4,
                          "value": "a4",
                          "content": "Bachelor's Degree (e.g. BA, BS)",
                          "content_type": "text/plain"
                        },
                        {
                          "id": "e7f81d4c-9011-4838-8e98-5c5137193dda",
                          "position": 5,
                          "value": "a5",
                          "content": "Master's degree (e.g. MA, MS, MEd)",
                          "content_type": "text/plain"
                        },
                        {
                          "id": "24aea610-6861-4773-abeb-c5da93371fc0",
                          "position": 6,
                          "value": "a6",
                          "content": "Professional degree (e.g. MD, DDS, JD)",
                          "content_type": "text/plain"
                        },
                        {
                          "id": "664ad017-4da4-4f37-a0de-2cd13b57f9ba",
                          "position": 7,
                          "value": "a7",
                          "content": "Doctorate (e.g. PhD, EdD)",
                          "content_type": "text/plain"
                        },
                        {
                          "id": "35291e64-9b70-4fa8-bc71-89a30ca0854d",
                          "position": 8,
                          "value": "a8",
                          "content": "Did not complete high school / secondary school",
                          "content_type": "text/plain"
                        }
                      ]
                    },
                    {
                      "id": "7a9be1bf-4f60-415e-8856-a09fc92c3619",
                      "value": "q2",
                      "position": 2,
                      "content": "How many family members, including yourself, do you currently live with?",
                      "content_type": "text/plain",
                      "question_type": "numerical",
                      "style_class": "light-style",
                      "details": {
                        "min": 0,
                        "max": 10,
                        "max_display": "More than 10"
                      }
                    },
                    {
                      "id": "8a9be1bf-4f50-415e-8856-a09fc92c3619",
                      "value": "q3",
                      "position": 3,
                      "content": "On a scale of 1-7 (1=disagree and 7=agree), during the past week I have found that:\n\nMy exercise brings on my fatigue",
                      "content_type": "text/plain",
                      "question_type": "scale",
                      "style_class": "light-style",
                      "details": {
                        "min": 1,
                        "max": 7,
                        "interval": 1
                      }
                    },
                    {
                      "id": "9a9be1bf-4f50-415e-8856-a09fc92c3619",
                      "value": "q4",
                      "position": 4,
                      "content": "In the last month, how often have you felt that you were unable to control the important things in your life?",
                      "content_type": "text/plain",
                      "question_type": "pick-one",
                      "style_class": "light-style",
                      "options": [
                        {
                          "id": "f7f81d4c-9011-4838-8e98-5c5137193dda",
                          "position": 1,
                          "value": "a1",
                          "content": "Never",
                          "content_type": "text/plain"
                        },
                        {
                          "id": "24aeaf10-6861-4773-abeb-c5da93371fc0",
                          "position": 2,
                          "value": "a2",
                          "content": "Almost never",
                          "content_type": "text/plain"
                        },
                        {
                          "id": "664ad017-4df4-4f37-a0de-2cd13b57f9ba",
                          "position": 3,
                          "value": "a3",
                          "content": "Sometimes",
                          "content_type": "text/plain"
                        },
                        {
                          "id": "35291e64-9b70-4fa8-bc71-8fa30ca0854d",
                          "position": 4,
                          "value": "a4",
                          "content": "Fairly often",
                          "content_type": "text/plain"
                        },
                        {
                          "id": "f7f81d4c-9011-4838-8e98-5c51371f3dda",
                          "position": 5,
                          "value": "a5",
                          "content": "Very often",
                          "content_type": "text/plain"
                        }
                      ]
                    },
                    {
                      "id": "9a9be1bf-4ff0-415e-8856-a09fc92c3619",
                      "value": "q5",
                      "position": 5,
                      "content": "When you aren't feeling well, how likely are you to respond to surveys?",
                      "content_type": "text/plain",
                      "question_type": "range",
                      "style_class": "light-style",
                      "details": {
                        "min": 0,
                        "max": 100,
                        "min_label": "0% likely",
                        "max_label": "100% likely"
                      }
                    },
                    {
                      "id": "aa9be1bf-4f50-415e-8856-a09fc92c3619",
                      "value": "q6",
                      "position": 6,
                      "content": "What's your favorite feature of the 4YouandMe app?",
                      "content_type": "text/plain",
                      "question_type": "text-input",
                      "style_class": "light-style",
                      "details": {
                        "placeholder": "Describe feature",
                        "max_characters": 200
                      }
                    },
                    {
                      "id": "ba9be1bf-4f50-415e-8856-a09fc92c3619",
                      "value": "q7",
                      "position": 7,
                      "content": "Select your date of birth",
                      "content_type": "text/plain",
                      "question_type": "date-input",
                      "style_class": "light-style",
                      "details": {
                        "min_date": "1919-01-01",
                        "max_date": "2001-01-01"
                      }
                    },
                    {
                      "id": "ca9be1bf-4f50-415e-8856-a09fc92c3619",
                      "value": "q8",
                      "position": 8,
                      "content": "Describe the individual(s) with whom you live (Select all that apply)",
                      "content_type": "text/plain",
                      "question_type": "pick-many",
                      "style_class": "light-style",
                      "options": [
                        {
                          "id": "f7f81f4c-9011-4838-8e98-5c5137193dda",
                          "position": 1,
                          "value": "a1",
                          "content": "Husband or wife",
                          "content_type": "text/plain"
                        },
                        {
                          "id": "34aea610-6861-4773-abef-c5da93371fc0",
                          "position": 2,
                          "value": "a2",
                          "content": "Biological son or daughter",
                          "content_type": "text/plain"
                        },
                        {
                          "id": "764ad017-4da4-4ff7-a0de-2cd13b57f9ba",
                          "position": 3,
                          "value": "a3",
                          "content": "Adopted son or daughter",
                          "content_type": "text/plain"
                        },
                        {
                          "id": "45291ef4-9b70-4fa8-bc71-89a30ca0854d",
                          "position": 4,
                          "value": "a4",
                          "content": "Stepson or stepdaughter",
                          "content_type": "text/plain"
                        },
                        {
                          "id": "g7ff1d4c-9011-4838-8e98-5c5137193dda",
                          "position": 5,
                          "value": "a5",
                          "content": "Brother or sister",
                          "content_type": "text/plain"
                        }
                      ]
                    },
                    {
                      "id": "da9be1bf-4f50-415e-8856-a09fc92c3619",
                      "value": "q9",
                      "position": 9,
                      "content": "What is your current work situation?",
                      "content_type": "text/plain",
                      "question_type": "pick-one",
                      "style_class": "light-style",
                      "options": [
                        {
                          "id": "g7f81d4c-9011-4838-8e98-5c5137193dda",
                          "position": 1,
                          "value": "a1",
                          "content": "Working now",
                          "content_type": "text/plain"
                        },
                        {
                          "id": "44aea610-6861-4773-abeb-c5da93371fc0",
                          "position": 2,
                          "value": "a2",
                          "content": "Only temporarily laid off",
                          "content_type": "text/plain"
                        },
                        {
                          "id": "864ad017-4da4-4f37-a0de-2cd13b57f9ba",
                          "position": 3,
                          "value": "a3",
                          "content": "Sick leave or maternity leave",
                          "content_type": "text/plain"
                        },
                        {
                          "id": "55291e64-9b70-4fa8-bc71-89a30ca0854d",
                          "position": 4,
                          "value": "a4",
                          "content": "Looking for work",
                          "content_type": "text/plain"
                        },
                        {
                          "id": "h7f81d4c-9011-4838-8e98-5c5137193dda",
                          "position": 5,
                          "value": "a5",
                          "content": "Other, specify:",
                          "content_type": "text/plain",
                          "details": {
                            "option_type": "text-input",
                            "placeholder": "Other",
                            "max_characters": 50
                          }
                        }
                      ]
                    },
                    {
                      "id": "aa9be1bf-4f50-4f5e-8856-a09fc92c3619",
                      "value": "q10",
                      "position": 10,
                      "content": "How would you rate the OVERALL control of your IBD in the past two weeks?",
                      "content_type": "text/plain",
                      "question_type": "range",
                      "style_class": "light-style",
                      "details": {
                        "min": 0,
                        "max": 100,
                        "min_label": "Worst possible control",
                        "max_label": "Best possible"
                      }
                    },
                    {
                      "id": "9a9be1bf-4f50-415e-8f56-a09fc92c3619",
                      "value": "q11",
                      "position": 11,
                      "content": "How would you rate your pain on average?\n\n1 is no pain\n10 is worst pain imaginable",
                      "content_type": "text/plain",
                      "question_type": "scale",
                      "style_class": "light-style",
                      "details": {
                        "min": 1,
                        "max": 10,
                        "interval": 1
                      }
                    }
                  ]
                },
                {
                  "id": "9f8118e4-a13b-48r6-be33-58199d9ec07b",
                  "name": "outro",
                  "position": 5,
                  "type": "info",
                  "content": "You've earned 10 points!\n\nAre you following your dreams today?",
                  "content_type": "text/plain",
                  "style_class": "light-style",
                  "title": "Thanks!"
                }
              ]
            }
          },
          "style_class": "light-style"
        }
      ]
    },
    {
      "id": "3d3c6302-16e8-4167-8b64-9e09782d7735",
      "position": 3,
      "title": "Sun, Aug 18",
      "tiles": [
        {
          "id": "3d3c6302-16e8-4f67-8b64-9e09782d7736",
          "position": 1,
          "type": "task",
          "icon": "timer",
          "content": "Complete your daily survey",
          "contents": {
            "heading": "Complete your daily survey",
            "alignment": "center"
          },
          "button": {
            "label": "Start now",
            "click_action": {
              "task_name": "survey",
              "task_id": "3d3c6301-16e8-4167-8b64-9e09782d7736",
              "task_details": [
                {
                  "id": "9f8178e4-a13b-48c6-be33-58199d9ec07a",
                  "name": "intro",
                  "position": 1,
                  "type": "info",
                  "content": "<p>You are about to start a survey that asks about your daily symptoms. It is 2 questions and will take about 30 seconds to complete.<\/p>",
                  "content_type": "text/html",
                  "style_class": "light-style",
                  "title": "Daily survey",
                  "button": {
                    "label": "Let's start"
                  }
                },
                {
                  "id": "52fc9b41-d0dc-40a7-bf1e-954a4318ba6b",
                  "name": "survey",
                  "position": 2,
                  "format": "one-screen-per-question",
                  "questions": [
                    {
                      "id": "7a9be1bf-4f50-415e-8956-a09fc92c3619",
                      "value": "q1",
                      "position": 1,
                      "content": "How many liquid or very soft stools did you have today?",
                      "content_type": "text/plain",
                      "question_type": "numerical",
                      "style_class": "dark-style",
                      "details": {
                        "min": 0,
                        "max": 20,
                        "max_display": "More than 20"
                      }
                    },
                    {
                      "id": "7a9be1bf-4f51-415e-f856-a09fc92c3619",
                      "value": "q2",
                      "position": 2,
                      "content": "Please rate your abdominal pain today",
                      "content_type": "text/plain",
                      "question_type": "pick-one",
                      "style_class": "dark-style",
                      "options": [
                        {
                          "id": "c7f81d4c-9011-4838-8e98-5c5137193dfa",
                          "position": 1,
                          "value": "a1",
                          "content": "0=none",
                          "content_type": "text/plain"
                        },
                        {
                          "id": "04aea6f0-6861-4773-abeb-c5da93371fc0",
                          "position": 2,
                          "value": "a2",
                          "content": "1=mild",
                          "content_type": "text/plain"
                        },
                        {
                          "id": "464af017-4da4-4f37-a0de-2cd13b57f9ba",
                          "position": 3,
                          "value": "a3",
                          "content": "2=moderate",
                          "content_type": "text/plain"
                        },
                        {
                          "id": "15291ef4-9b70-4fa8-bc71-89a30ca0854d",
                          "position": 4,
                          "value": "a4",
                          "content": "3=severe",
                          "content_type": "text/plain"
                        }
                      ]
                    }
                  ]
                },
                {
                  "id": "9f8118e4-a13d-48c6-be33-58199d9ec07b",
                  "name": "outro",
                  "position": 3,
                  "type": "info",
                  "content": "You've earned 10 points",
                  "content_type": "text/plain",
                  "style_class": "light-style",
                  "title": "Thanks!"
                }
              ]
            }
          },
          "style_class": "light-style"
        },
        {
          "id": "2d3c6302-16e8-4167-8b64-9e09782d7756",
          "position": 2,
          "type": "task",
          "icon": "reaction-time",
          "content": "It's time for a Reaction Time task",
          "contents": {
            "heading": "It's time for a Reaction Time task",
            "alignment": "center"
          },
          "button": {
            "label": "Start now",
            "click_action": {
              "task_name": "reaction-time-task",
              "task_id": "d1e31110-fb48-4d25-b9cb-a2f6ecd9641a",
              "task_details": [
                {
                  "id": "9f8118e5-a13b-48c6-be33-58199d9ec07a",
                  "name": "intro",
                  "position": 1,
                  "type": "info",
                  "content": "<h1>About this activity<\/h1><p>Every other day, we'll ask you to complete this task in which you'll do something.<\/p><h1>Why this activity?<\/h1><p>This activity will help us understand your stress level by evaluating your XX.<\/p>",
                  "content_type": "text/html",
                  "style_class": "light-style",
                  "title": "Reaction Time Task",
                  "reminder_button": {
                    "label": "Remind me again in an hour"
                  },
                  "button": {
                    "label": "Let's start"
                  }
                },
                {
                  "id": "52fc9a42-d0fc-40a7-bf1e-954a4318ba6b",
                  "name": "reaction-time-task",
                  "position": 2,
                  "options": {
                    "maximumStimulusInterval": 3,
                    "minimumStimulusInterval": 2,
                    "thresholdAcceleration": 2,
                    "numberOfAttempts": 4,
                    "timeOut": 20,
                    "intendedUseDescription": "Intended use description"
                  }
                },
                {
                  "id": "9f4118e4-a13b-48c6-be33-58199d9ec07b",
                  "name": "outro",
                  "position": 3,
                  "type": "info",
                  "content": "Thanks! You've earned 10 points",
                  "content_type": "text/plain",
                  "style_class": "light-style",
                  "title": "Thanks!"
                }
              ]
            }
          },
          "style_class": "light-style"
        }
      ]
    },
    {
      "id": "4d3c6302-16e8-4167-8b64-9e09782d7735",
      "position": 4,
      "title": "Sat, Aug 17",
      "tiles": [
        {
          "id": "4d3c6302-16e8-4167-8b64-9e09782d7736",
          "position": 1,
          "type": "task",
          "icon": "camera",
          "content": "It's time to record a video diary",
          "contents": {
            "heading": "It's time to record a video diary",
            "alignment": "center"
          },
          "button": {
            "label": "Start now",
            "click_action": {
              "task_name": "video-diary",
              "task_id": "e29052d4-3607-4b2a-98e1-ef5dcfd05579",
              "task_details": [
                {
                  "id": "46807205-5ec3-4cea-91e7-6f9e9b0bc595",
                  "name": "intro",
                  "position": 1,
                  "type": "info",
                  "content": "<h1>About this activity<\/h1><p>Every two weeks, we'll ask you to spend a couple of minutes telling us about your stress level, your Crohn's disease symptoms, and how you feel overall. Hold your phone so that your face is visible in the recording.<\/p><h1>Why this activity?<\/h1><p>In addition to what you tell us in these videos, we'll study your face to learn more about any mood changes or fatigue you are having.<\/p><h1>What to talk about?<\/h1><p>Talk about anything you'd like! We are most interested in learning about the symptoms you've been experiencing over the last two weeks  - any changes in the way you feel.<\/p><h1>Note<\/h1><p>Please remember that the video diaries are only for the purpose of research. We will analyze the videos after the study is over. If you need medical care, please talk to your physician.<\/p>",
                  "content_type": "text/html",
                  "style_class": "light-style",
                  "title": "Video Diary",
                  "button": {
                    "label": "Start Activity"
                  }
                },
                {
                  "id": "7200f211-1d3b-4b57-9a2f-9e2f02000dd6",
                  "name": "video-diary",
                  "position": 2,
                  "options": {
                    "recordDuration": 120,
                    "output": "mp4",
                    "switchCamera": true
                  }
                }
              ]
            }
          },
          "style_class": "light-style"
        },
        {
          "id": "2d3c6302-16e8-4167-8b64-9e09782d8756",
          "position": 2,
          "type": "task",
          "icon": "walk-test",
          "content": "It's time for a 6-Minute Walk Test",
          "contents": {
            "heading": "It's time for a 6-Minute Walk Test",
            "alignment": "center"
          },
          "button": {
            "label": "Start now",
            "click_action": {
              "task_name": "walk-test",
              "task_id": "d1d31110-fb48-4d25-b9cb-a2f6ecd9641a",
              "task_details": [
                {
                  "id": "9f811ve5-a13b-48c6-be33-58199d9ec07a",
                  "name": "intro",
                  "position": 1,
                  "type": "info",
                  "content": "<h1>About this activity<\/h1><p>Every other week, we'll ask you to complete this task in which you'll do something.<\/p><h1>Why this activity?<\/h1><p>This activity will help us understand your stress level by evaluating your XX.<\/p>",
                  "content_type": "text/html",
                  "style_class": "light-style",
                  "title": "6-Minute Walk Test",
                  "button": {
                    "label": "Let's start"
                  }
                },
                {
                  "id": "52fc1a42-d0dc-40a7-bf1e-954a4318ba6b",
                  "name": "walk-test",
                  "position": 2,
                  "options": {
                    "walkDuration": 360,
                    "restDuration": 0,
                    "intendedUseDescription": "Intended use description goes here"
                  }
                },
                {
                  "id": "9f8110e4-a13b-48c6-be33-58199d9ec07b",
                  "name": "outro",
                  "position": 3,
                  "type": "info",
                  "content": "Thanks! You've earned 30 points",
                  "content_type": "text/plain",
                  "style_class": "light-style",
                  "title": "Thanks!"
                }
              ]
            }
          },
          "style_class": "light-style"
        }
      ]
    },
    {
      "id": "d8173b2b-4da3-4689-a70d-620791ea5682",
      "position": 4,
      "title": "Fri, Aug 16",
      "tiles": [
        {
          "id": "e7aca570-536b-40d0-a867-a4d6afa39f0c",
          "position": 1,
          "type": "info",
          "icon": "camera",
          "content": "You've earned 20 points this month!",
          "contents": {
            "heading": "You've earned 20 points this month!",
            "body": "The more study activities you complete the more you earn",
            "alignment": "center"
          },
          "style_class": "light-style"
        },
        {
          "id": "4622f4b7-cf1e-4ec2-a547-6022229a80e6",
          "position": 2,
          "type": "info",
          "content": "Every study activity YOU complete contributes to GROUNDBREAKING research!",
          "contents": {
            "heading": "Every study activity YOU complete contributes to GROUNDBREAKING research!",
            "alignment": "center"
          },
          "style_class": "light-style"
        },
        {
          "id": "4093c3e9-d112-44ee-9264-74086a7816d8",
          "position": 3,
          "type": "info",
          "content": "Its been 3 days since we've received data from your Empatica",
          "contents": {
            "heading": "Its been 3 days since we've received data from your Empatica",
            "body": "Check out the FAQ or contact a member of the study team at (XXX) XXX-XXXX for help",
            "alignment": "left"
          },
          "button": {
            "label": "Visit FAQ",
            "click_action": {
              "type": "faq"
            }
          },
          "style_class": "light-style"
        },
        {
          "id": "a48fa0a1-2734-415d-9f26-6eef0d96355f",
          "position": 4,
          "type": "info",
          "content": "Click here to be taken to google.com",
          "contents": {
            "heading": "Click here to be taken to google.com",
            "alignment": "center"
          },
          "button": {
            "label": "Go ",
            "click_action": {
              "type": "browser",
              "destination": "https://google.com"
            }
          },
          "style_class": "light-style"
        },
        {
          "id": "a48fa0a1-2734-415d-9f26-6eff0d96355f",
          "position": 5,
          "type": "info",
          "content": "Click here to be taken to the contact info page",
          "contents": {
            "heading": "Click here to be taken to the contact info page",
            "alignment": "center"
          },
          "button": {
            "label": "Go",
            "click_action": {
              "type": "contact"
            }
          },
          "style_class": "light-style"
        },
        {
          "id": "a48fa0a1-2734-415d-9f26-6fff0d96355f",
          "position": 6,
          "type": "info",
          "content": "Click here to be taken to the points info page",
          "contents": {
            "heading": "Click here to be taken to the points info page",
            "alignment": "center"
          },
          "button": {
            "label": "Go",
            "click_action": {
              "type": "points"
            }
          },
          "style_class": "light-style"
        },
        {
          "id": "a48fa0a1-2734-415d-9f26-ffff0d96355f",
          "position": 7,
          "type": "info",
          "content": "Click to open the Oura app",
          "contents": {
            "heading": "Click to open the Oura app",
            "body": "The button should go to Oura in the app store if Oura is not installed",
            "alignment": "center"
          },
          "button": {
            "label": "Open Oura",
            "click_action": {
              "type": "openApp",
              "destination": "oura://",
              "app_id": "1043837948"
            }
          },
          "style_class": "light-style"
        }
      ]
    }
  ]
}
