{
  "feed_metadata": {
    "points": 0,
    "month": 0,
    "day_numerator": 0,
    "day_denominator": 31
  },
  "quick_activity": {
    "id": "does-not-matter",
    "position": 1,
    "type": "ema"
  },
  "feed_sections": [
    {
      "id": "11dea580-2811-4130-b288-efb1159922e3",
      "user_id": "cbc76193-e310-4b3a-9217-ef205ca8aff1",
      "position": 2,
      "title": "Yesterday",
      "created_at": "2020-01-06T20:16:47.881Z",
      "updated_at": "2020-01-06T20:16:47.881Z",
      "tiles": [
        {
          "id": "9f58c5de-c0c3-47d2-b4c5-4e30eb0589a2",
          "icon": "check-list",
          "position": 3,
          "style_class": "light-style",
          "type": "task",
          "content": "It's time to take today's survey",
          "content_type": "text/plain",
          "contents": {
            "heading": "It's time to take today's survey",
            "alignment": "center"
          },
          "heading": {
            "id": "76151587-515d-4a7a-94a6-e401f456b0c2",
            "content": "It's time to take today's survey",
            "content_type": "text/html",
            "style_class": "heading center"
          },
          "button": {
            "label": "Start now",
            "click_action": {
              "position": 1,
              "name": "survey",
              "task_id": "c328aba6-a743-41eb-b7a6-8bde4b079a1a",
              "task_details": [
                {
                  "id": "a0b5bee1-5a44-42cc-bc2a-7da11badac37",
                  "task_id": "c328aba6-a743-41eb-b7a6-8bde4b079a1a",
                  "name": "intro",
                  "position": 1,
                  "title": "Daily survey",
                  "type": "info",
                  "content": "<p>You are about to start a survey that asks about your daily symptoms. It is 2 questions and will take about 30 seconds to complete.</p>",
                  "content_type": "text/html",
                  "style_class": "light-style",
                  "button": {
                    "label": "Let's start"
                  }
                },
                {
                  "id": "082c2a23-f5b5-4305-a85e-092214c6aeb5",
                  "task_id": "c328aba6-a743-41eb-b7a6-8bde4b079a1a",
                  "name": "survey",
                  "position": 2,
                  "format": "one-screen-per-question",
                  "questions": [
                    {
                      "id": "00246649-86d7-4657-be5e-d3fcf5af50e9",
                      "title": null,
                      "position": 1,
                      "language": "en",
                      "question_type": "numerical",
                      "correct_response": null,
                      "value": "q1",
                      "question-title": null,
                      "content": "How many liquid or very soft stools did you have today?",
                      "content_type": "text/plain",
                      "style_class": "light-style"
                    },
                    {
                      "id": "65ba0e77-6227-447f-a736-67686f77ea25",
                      "title": null,
                      "position": 2,
                      "language": "en",
                      "question_type": "pick-one",
                      "correct_response": null,
                      "value": "q2",
                      "options": [
                        {
                          "id": "e8b1f971-7775-487b-ba49-c57e554d1c63",
                          "question_id": "65ba0e77-6227-447f-a736-67686f77ea25",
                          "language": null,
                          "position": 1,
                          "value": "a1",
                          "content": "0=none",
                          "content_type": "text/plain",
                          "style_class": null
                        },
                        {
                          "id": "7b3ecb50-e77d-485e-9f05-a0b67942ad2a",
                          "question_id": "65ba0e77-6227-447f-a736-67686f77ea25",
                          "language": null,
                          "position": 2,
                          "value": "a2",
                          "content": "1=mild",
                          "content_type": "text/plain",
                          "style_class": null
                        },
                        {
                          "id": "7e6f61b5-d4e7-4f2e-bd2c-a57f9d739179",
                          "question_id": "65ba0e77-6227-447f-a736-67686f77ea25",
                          "language": null,
                          "position": 3,
                          "value": "a3",
                          "content": "2=moderate",
                          "content_type": "text/plain",
                          "style_class": null
                        },
                        {
                          "id": "44acf17f-2aa0-40cf-b10b-2e5d5086e04b",
                          "question_id": "65ba0e77-6227-447f-a736-67686f77ea25",
                          "language": null,
                          "position": 4,
                          "value": "a4",
                          "content": "3=severe",
                          "content_type": "text/plain",
                          "style_class": null
                        }
                      ],
                      "question-title": null,
                      "content": "Please rate your abdominal pain today",
                      "content_type": "text/plain",
                      "style_class": "light-style"
                    }
                  ]
                },
                {
                  "id": "a22c9b78-15ca-4431-97a0-7b99344782d5",
                  "task_id": "c328aba6-a743-41eb-b7a6-8bde4b079a1a",
                  "name": "intro",
                  "position": 3,
                  "type": "info",
                  "content": "Next we'll ask you a few questions about yourself",
                  "content_type": "text/plain",
                  "style_class": "light-style"
                },
                {
                  "id": "c7d5a7e2-d290-4369-876a-3e898015e2ae",
                  "task_id": "c328aba6-a743-41eb-b7a6-8bde4b079a1a",
                  "name": "survey",
                  "position": 4,
                  "format": "one-screen-per-question",
                  "questions": [
                    {
                      "id": "867fe3ca-06c5-4169-a378-11a4cc57017d",
                      "title": null,
                      "position": 1,
                      "language": "en",
                      "question_type": "pick-one",
                      "correct_response": null,
                      "value": "q1",
                      "options": [
                        {
                          "id": "1f12a29a-4961-4f7f-bfbb-02798836ba5e",
                          "question_id": "867fe3ca-06c5-4169-a378-11a4cc57017d",
                          "language": null,
                          "position": 1,
                          "value": "a1",
                          "content": "High school or secondary school diploma or equivalent (e.g. GED, GCSE)",
                          "content_type": "text/plain",
                          "style_class": null
                        },
                        {
                          "id": "33d02787-0b08-485c-afb2-4647d76c67e6",
                          "question_id": "867fe3ca-06c5-4169-a378-11a4cc57017d",
                          "language": null,
                          "position": 2,
                          "value": "a2",
                          "content": "Some college or university, no degree",
                          "content_type": "text/plain",
                          "style_class": null
                        },
                        {
                          "id": "a9c57003-7ba3-46d6-b7e6-a44fbde4bddc",
                          "question_id": "867fe3ca-06c5-4169-a378-11a4cc57017d",
                          "language": null,
                          "position": 3,
                          "value": "a3",
                          "content": "Associate's / Senior Secondary / Vocational / Foundational School degree (e.g. AA, AS, FdA, FdS)",
                          "content_type": "text/plain",
                          "style_class": null
                        },
                        {
                          "id": "77e54264-dc96-47dc-8f3a-ba0db0f3ba2b",
                          "question_id": "867fe3ca-06c5-4169-a378-11a4cc57017d",
                          "language": null,
                          "position": 4,
                          "value": "a4",
                          "content": "Bachelor's Degree (e.g. BA, BS)",
                          "content_type": "text/plain",
                          "style_class": null
                        },
                        {
                          "id": "e0cd761f-ea72-448a-820f-23e388e273eb",
                          "question_id": "867fe3ca-06c5-4169-a378-11a4cc57017d",
                          "language": null,
                          "position": 5,
                          "value": "a5",
                          "content": "Master's degree (e.g. MA, MS, MEd)",
                          "content_type": "text/plain",
                          "style_class": null
                        },
                        {
                          "id": "31d2a08d-5375-453f-8493-12aa9b6fabf0",
                          "question_id": "867fe3ca-06c5-4169-a378-11a4cc57017d",
                          "language": null,
                          "position": 6,
                          "value": "a6",
                          "content": "Professional degree (e.g. MD, DDS, JD)",
                          "content_type": "text/plain",
                          "style_class": null
                        },
                        {
                          "id": "f76032c8-8fb9-49c3-932a-32c259ade20b",
                          "question_id": "867fe3ca-06c5-4169-a378-11a4cc57017d",
                          "language": null,
                          "position": 7,
                          "value": "a7",
                          "content": "Doctorate (e.g. PhD, EdD)",
                          "content_type": "text/plain",
                          "style_class": null
                        },
                        {
                          "id": "59f4c47e-f598-4887-978f-1b421b58bc64",
                          "question_id": "867fe3ca-06c5-4169-a378-11a4cc57017d",
                          "language": null,
                          "position": 8,
                          "value": "a8",
                          "content": "Did not complete high school / secondary school",
                          "content_type": "text/plain",
                          "style_class": null
                        }
                      ],
                      "question-title": null,
                      "content": "What is the highest level of education you have completed?",
                      "content_type": "text/plain",
                      "style_class": "light-style"
                    },
                    {
                      "id": "f8734e25-4290-48c6-a76e-1745f8b2cd6f",
                      "title": null,
                      "position": 2,
                      "language": "en",
                      "question_type": "numerical",
                      "correct_response": null,
                      "value": "q2",
                      "question-title": null,
                      "content": "How many family members, including yourself, do you currently live with?",
                      "content_type": "text/plain",
                      "style_class": "light-style"
                    },
                    {
                      "id": "d13a8935-9526-4a86-9218-a64f1a791750",
                      "title": null,
                      "position": 3,
                      "language": "en",
                      "question_type": "scale",
                      "correct_response": null,
                      "value": "q3",
                      "question-title": null,
                      "content": "On a scale of 1-7 (1=disagree and 7=agree), during the past week I have found that:\n\nMy exercise brings on my fatigue",
                      "content_type": "text/plain",
                      "style_class": "light-style"
                    },
                    {
                      "id": "a85bc971-0f68-4e48-b4e2-ed447959d267",
                      "title": null,
                      "position": 4,
                      "language": "en",
                      "question_type": "pick-one",
                      "correct_response": null,
                      "value": "q4",
                      "options": [
                        {
                          "id": "6fa4b60e-c8ce-4a53-bb81-92de6c248076",
                          "question_id": "a85bc971-0f68-4e48-b4e2-ed447959d267",
                          "language": null,
                          "position": 1,
                          "value": "a1",
                          "content": "Never",
                          "content_type": "text/plain",
                          "style_class": null
                        },
                        {
                          "id": "9c7718a9-631d-4a00-892d-1172f3502b50",
                          "question_id": "a85bc971-0f68-4e48-b4e2-ed447959d267",
                          "language": null,
                          "position": 2,
                          "value": "a2",
                          "content": "Almost never",
                          "content_type": "text/plain",
                          "style_class": null
                        },
                        {
                          "id": "ad7cc98f-7030-4813-aba3-3b05a5036add",
                          "question_id": "a85bc971-0f68-4e48-b4e2-ed447959d267",
                          "language": null,
                          "position": 3,
                          "value": "a3",
                          "content": "Sometimes",
                          "content_type": "text/plain",
                          "style_class": null
                        },
                        {
                          "id": "0c49553b-3e3f-49b9-8697-768361de38ed",
                          "question_id": "a85bc971-0f68-4e48-b4e2-ed447959d267",
                          "language": null,
                          "position": 4,
                          "value": "a4",
                          "content": "Fairly often",
                          "content_type": "text/plain",
                          "style_class": null
                        },
                        {
                          "id": "86ba13a4-2230-448a-8b35-5614d8c15613",
                          "question_id": "a85bc971-0f68-4e48-b4e2-ed447959d267",
                          "language": null,
                          "position": 5,
                          "value": "a5",
                          "content": "Very often",
                          "content_type": "text/plain",
                          "style_class": null
                        }
                      ],
                      "question-title": null,
                      "content": "In the last month, how often have you felt that you were unable to control the important things in your life?",
                      "content_type": "text/plain",
                      "style_class": "light-style"
                    },
                    {
                      "id": "715ce906-d935-4fdc-bcf0-9103f3880dd8",
                      "title": null,
                      "position": 5,
                      "language": "en",
                      "question_type": "range",
                      "correct_response": null,
                      "value": "q5",
                      "question-title": null,
                      "content": "When you aren't feeling well, how likely are you to respond to surveys?",
                      "content_type": "text/plain",
                      "style_class": "light-style"
                    },
                    {
                      "id": "f136ca9e-7994-4687-8f1e-d4542ee35416",
                      "title": null,
                      "position": 6,
                      "language": "en",
                      "question_type": "text-input",
                      "correct_response": null,
                      "value": "q6",
                      "question-title": null,
                      "content": "What's your favorite feature of the 4YouandMe app?",
                      "content_type": "text/plain",
                      "style_class": "light-style"
                    },
                    {
                      "id": "bf7c9497-f4d3-4c60-823e-37c532dd4632",
                      "title": null,
                      "position": 7,
                      "language": "en",
                      "question_type": "date-input",
                      "correct_response": null,
                      "value": "q7",
                      "question-title": null,
                      "content": "Select your date of birth",
                      "content_type": "text/plain",
                      "style_class": "light-style"
                    },
                    {
                      "id": "8947cc31-c366-4727-8f87-32f70915b25b",
                      "title": null,
                      "position": 8,
                      "language": "en",
                      "question_type": "pick-many",
                      "correct_response": null,
                      "value": "q8",
                      "options": [
                        {
                          "id": "5f39515c-1873-412e-84d5-c64f924c19a3",
                          "question_id": "8947cc31-c366-4727-8f87-32f70915b25b",
                          "language": null,
                          "position": 1,
                          "value": "a1",
                          "content": "Husband or wife",
                          "content_type": "text/plain",
                          "style_class": null
                        },
                        {
                          "id": "33535d49-8706-459e-ae12-c09e57c987fe",
                          "question_id": "8947cc31-c366-4727-8f87-32f70915b25b",
                          "language": null,
                          "position": 2,
                          "value": "a2",
                          "content": "Biological son or daughter",
                          "content_type": "text/plain",
                          "style_class": null
                        },
                        {
                          "id": "775a4556-96e1-45d0-b092-cde4a526ee84",
                          "question_id": "8947cc31-c366-4727-8f87-32f70915b25b",
                          "language": null,
                          "position": 3,
                          "value": "a3",
                          "content": "Adopted son or daughter",
                          "content_type": "text/plain",
                          "style_class": null
                        },
                        {
                          "id": "3de5c85f-f064-4a16-9c6f-1be5d7e7323a",
                          "question_id": "8947cc31-c366-4727-8f87-32f70915b25b",
                          "language": null,
                          "position": 4,
                          "value": "a4",
                          "content": "Stepson or stepdaughter",
                          "content_type": "text/plain",
                          "style_class": null
                        },
                        {
                          "id": "5246b76c-5142-4db0-bdb5-0f58afffb8e5",
                          "question_id": "8947cc31-c366-4727-8f87-32f70915b25b",
                          "language": null,
                          "position": 5,
                          "value": "a5",
                          "content": "Brother or sister",
                          "content_type": "text/plain",
                          "style_class": null
                        }
                      ],
                      "question-title": null,
                      "content": "Describe the individual(s) with whom you live (Select all that apply)",
                      "content_type": "text/plain",
                      "style_class": "light-style"
                    },
                    {
                      "id": "2e26c735-c51b-4039-8196-5224ef60837c",
                      "title": null,
                      "position": 9,
                      "language": "en",
                      "question_type": "pick-one",
                      "correct_response": null,
                      "value": "q9",
                      "options": [
                        {
                          "id": "78a57744-09ee-4568-ad3a-c1b9c75556e2",
                          "question_id": "2e26c735-c51b-4039-8196-5224ef60837c",
                          "language": null,
                          "position": 1,
                          "value": "a1",
                          "content": "Working now",
                          "content_type": "text/plain",
                          "style_class": null
                        },
                        {
                          "id": "01c05faf-50a4-4e8d-9e93-8766d93be1cb",
                          "question_id": "2e26c735-c51b-4039-8196-5224ef60837c",
                          "language": null,
                          "position": 2,
                          "value": "a2",
                          "content": "Only temporarily laid off",
                          "content_type": "text/plain",
                          "style_class": null
                        },
                        {
                          "id": "f47cfaba-8c27-40fb-a2b5-04418456dd7e",
                          "question_id": "2e26c735-c51b-4039-8196-5224ef60837c",
                          "language": null,
                          "position": 3,
                          "value": "a3",
                          "content": "Sick leave or maternity leave",
                          "content_type": "text/plain",
                          "style_class": null
                        },
                        {
                          "id": "45283b83-740f-4ee0-b4bc-83fd4d3720ba",
                          "question_id": "2e26c735-c51b-4039-8196-5224ef60837c",
                          "language": null,
                          "position": 4,
                          "value": "a4",
                          "content": "Looking for work",
                          "content_type": "text/plain",
                          "style_class": null
                        },
                        {
                          "id": "da6e0171-fd0d-497a-80d7-65b6cc895b79",
                          "question_id": "2e26c735-c51b-4039-8196-5224ef60837c",
                          "language": null,
                          "position": 5,
                          "value": "a5",
                          "content": "Other, specify:",
                          "content_type": "text/plain",
                          "style_class": null
                        }
                      ],
                      "question-title": null,
                      "content": "What is your current work situation?",
                      "content_type": "text/plain",
                      "style_class": "light-style"
                    },
                    {
                      "id": "b778e9d3-ea69-4976-bbb1-06e7fc74188a",
                      "title": null,
                      "position": 10,
                      "language": "en",
                      "question_type": "range",
                      "correct_response": null,
                      "value": "q10",
                      "question-title": null,
                      "content": "How would you rate the OVERALL control of your IBD in the past two weeks?",
                      "content_type": "text/plain",
                      "style_class": "light-style"
                    },
                    {
                      "id": "10f4b231-3cfd-4a4c-8925-c2f7c6ba5c4f",
                      "title": null,
                      "position": 11,
                      "language": "en",
                      "question_type": "scale",
                      "correct_response": null,
                      "value": "q11",
                      "question-title": null,
                      "content": "How would you rate your pain on average?\n\n1 is no pain\n10 is worst pain imaginable",
                      "content_type": "text/plain",
                      "style_class": "light-style"
                    }
                  ]
                },
                {
                  "id": "64b34b2b-3167-4cff-bee2-b883c42c6fb2",
                  "task_id": "c328aba6-a743-41eb-b7a6-8bde4b079a1a",
                  "name": "outro",
                  "position": 5,
                  "title": "Thanks!",
                  "type": "info",
                  "content": "You've earned 10 points!\n\nAre you following your dreams today?",
                  "content_type": "text/plain",
                  "style_class": "light-style"
                }
              ]
            }
          }
        },
        {
          "id": "fc285a68-59d7-48c0-861c-12f5d0e80944",
          "icon": "trail-making",
          "position": 2,
          "style_class": "light-style",
          "type": "task",
          "content": "It's time for a Trail Making task",
          "content_type": "text/plain",
          "contents": {
            "heading": "It's time for a Trail Making task",
            "alignment": "center"
          },
          "heading": {
            "id": "d4f26aa6-4fea-4e16-bc26-b4fa5b87393c",
            "content": "It's time for a Trail Making task",
            "content_type": "text/html",
            "style_class": "heading center"
          },
          "button": {
            "label": "Start now",
            "click_action": {
              "position": 1,
              "name": "trail-making-task",
              "task_id": "82d1faaf-6f67-42c2-974f-3bececf3ac59",
              "task_details": [
                {
                  "id": "c1948109-6a8a-43dd-bcb0-770c9750ec44",
                  "task_id": "82d1faaf-6f67-42c2-974f-3bececf3ac59",
                  "name": "intro",
                  "position": 1,
                  "title": "Trail Making Task",
                  "type": "info",
                  "content": "<h1>About this activity</h1><p>Every other day, we'll ask you to complete this task in which you'll tap a sequence of dots.</p><h1>Why this activity?</h1><p>This activity will help us understand your stress level by evaluating your visual attention and task switching.</p>",
                  "content_type": "text/html",
                  "style_class": "light-style",
                  "buttons": [
                    {
                      "label": "Remind me again in an hour",
                      "tag": "reminder"
                    }
                  ],
                  "button": {
                    "label": "Let's start"
                  },
                  "reminder_button": {
                    "label": "Remind me again in an hour",
                    "tag": "reminder"
                  }
                },
                {
                  "id": "486deb17-2e06-48f9-87be-9f02d63618d3",
                  "task_id": "82d1faaf-6f67-42c2-974f-3bececf3ac59",
                  "name": "trail-making-task",
                  "position": 2,
                  "options": {
                    "trailType": "ORKTrailMakingTypeIdentifierB",
                    "intendedUseDescription": "We'll do X and Y with the data we collect",
                    "trailmakingInstruction": "Do this as quickly as you can without making mistakes"
                  }
                },
                {
                  "id": "6809382f-fc59-42fe-9195-378631888bb9",
                  "task_id": "82d1faaf-6f67-42c2-974f-3bececf3ac59",
                  "name": "outro",
                  "position": 3,
                  "title": "Thanks!",
                  "type": "info",
                  "content": "You've earned 10 points",
                  "content_type": "text/plain",
                  "style_class": "light-style"
                }
              ]
            }
          }
        },
        {
          "id": "9a434087-aa59-4e9a-ad28-63705e810405",
          "position": 1,
          "style_class": "alert-style",
          "type": "info",
          "content": "We didn't get any steps from your Empatica Embrace yesterday. Sync now or click to visit the FAQ page for help",
          "content_type": "text/plain",
          "contents": {
            "heading": "We didn't get any steps from your Empatica Embrace yesterday",
            "body": "Sync now or click to visit the FAQ page for help",
            "alignment": "left"
          },
          "heading": {
            "id": "6dd5f299-3a1f-4af6-b238-5ade1901a0bb",
            "content": "We didn't get any steps from your Empatica Embrace yesterday",
            "content_type": "text/html",
            "style_class": "heading left"
          },
          "button": {
            "label": "See FAQ",
            "click_action": {
              "type": "faq"
            }
          }
        }
      ]
    },
    {
      "id": "2df24f3a-3389-46ba-b689-941421f9e21b",
      "user_id": "cbc76193-e310-4b3a-9217-ef205ca8aff1",
      "position": 3,
      "title": "Sun, Aug 18",
      "created_at": "2020-01-06T20:16:48.418Z",
      "updated_at": "2020-01-06T20:16:48.418Z",
      "tiles": [
        {
          "id": "8e160663-87a6-4674-a821-6e5c9b245035",
          "icon": "reaction-time",
          "position": 2,
          "style_class": "light-style",
          "type": "task",
          "content": "It's time for a Reaction Time task",
          "content_type": "text/plain",
          "contents": {
            "heading": "It's time for a Reaction Time task",
            "alignment": "center"
          },
          "heading": {
            "id": "828b49fd-ed3a-45de-8dc8-9a8638cc3fa9",
            "content": "It's time for a Reaction Time task",
            "content_type": "text/html",
            "style_class": "heading center"
          },
          "button": {
            "label": "Start now",
            "click_action": {
              "position": 1,
              "name": "reaction-time-task",
              "task_id": "1f00d8b4-6b9a-4675-be39-6464e4be0d82",
              "task_details": [
                {
                  "id": "7d837b03-fd90-413d-bd6f-2b1f672233b3",
                  "task_id": "1f00d8b4-6b9a-4675-be39-6464e4be0d82",
                  "name": "intro",
                  "position": 1,
                  "title": "Reaction Time Task",
                  "type": "info",
                  "content": "<h1>About this activity</h1><p>Every other day, we'll ask you to complete this task in which you'll do something.</p><h1>Why this activity?</h1><p>This activity will help us understand your stress level by evaluating your XX.</p>",
                  "content_type": "text/html",
                  "style_class": "light-style",
                  "buttons": [
                    {
                      "label": "Remind me again in an hour",
                      "tag": "reminder"
                    }
                  ],
                  "button": {
                    "label": "Let's start"
                  },
                  "reminder_button": {
                    "label": "Remind me again in an hour",
                    "tag": "reminder"
                  }
                },
                {
                  "id": "408e8e5c-2a42-42e7-95c9-e943ff839e1b",
                  "task_id": "1f00d8b4-6b9a-4675-be39-6464e4be0d82",
                  "name": "reaction-time-task",
                  "position": 2,
                  "options": {
                    "maximumStimulusInterval": 3,
                    "minimumStimulusInterval": 2,
                    "thresholdAcceleration": 2,
                    "numberOfAttempts": 4,
                    "timeOut": 20,
                    "intendedUseDescription": "Intended use description"
                  }
                },
                {
                  "id": "7e1fc344-5412-43b9-ba1a-4fe67fcd882e",
                  "task_id": "1f00d8b4-6b9a-4675-be39-6464e4be0d82",
                  "name": "outro",
                  "position": 3,
                  "title": "Thanks!",
                  "type": "info",
                  "content": "Thanks! You've earned 10 points",
                  "content_type": "text/plain",
                  "style_class": "light-style"
                }
              ]
            }
          }
        },
        {
          "id": "2c501ead-6813-43a5-aa45-b9eaa3072396",
          "icon": "timer",
          "position": 1,
          "style_class": "light-style",
          "type": "task",
          "content": "Complete your daily survey",
          "content_type": "text/plain",
          "contents": {
            "heading": "Complete your daily survey",
            "alignment": "center"
          },
          "heading": {
            "id": "ec28fe46-686f-4530-a29e-6f6b8d0a6bcb",
            "content": "Complete your daily survey",
            "content_type": "text/html",
            "style_class": "heading center"
          },
          "button": {
            "label": "Start now",
            "click_action": {
              "position": 1,
              "name": "survey",
              "task_id": "ee4c5684-418e-4ad6-9e3b-d983182d3574",
              "task_details": [
                {
                  "id": "a045cc27-ce41-44d3-a355-77d5c81fed99",
                  "task_id": "ee4c5684-418e-4ad6-9e3b-d983182d3574",
                  "name": "intro",
                  "position": 1,
                  "title": "Daily survey",
                  "type": "info",
                  "content": "<p>You are about to start a survey that asks about your daily symptoms. It is 2 questions and will take about 30 seconds to complete.</p>",
                  "content_type": "text/html",
                  "style_class": "light-style",
                  "button": {
                    "label": "Let's start"
                  }
                },
                {
                  "id": "12ef8430-e60c-41f1-bbba-37c4b14bccd3",
                  "task_id": "ee4c5684-418e-4ad6-9e3b-d983182d3574",
                  "name": "survey",
                  "position": 2,
                  "format": "one-screen-per-question",
                  "questions": [
                    {
                      "id": "3a2b014a-d7b0-4c61-9216-e1a3d53c271a",
                      "title": null,
                      "position": 1,
                      "language": "en",
                      "question_type": "numerical",
                      "correct_response": null,
                      "value": "q1",
                      "question-title": null,
                      "content": "How many liquid or very soft stools did you have today?",
                      "content_type": "text/plain",
                      "style_class": "dark-style"
                    },
                    {
                      "id": "93b066dc-0b19-4723-9674-1205bafdd7e1",
                      "title": null,
                      "position": 2,
                      "language": "en",
                      "question_type": "pick-one",
                      "correct_response": null,
                      "value": "q2",
                      "options": [
                        {
                          "id": "7bf60e61-6a7f-4c48-a757-b40ce76cc9f7",
                          "question_id": "93b066dc-0b19-4723-9674-1205bafdd7e1",
                          "language": null,
                          "position": 1,
                          "value": "a1",
                          "content": "0=none",
                          "content_type": "text/plain",
                          "style_class": null
                        },
                        {
                          "id": "cccd5279-8008-423a-9153-05987f746c7a",
                          "question_id": "93b066dc-0b19-4723-9674-1205bafdd7e1",
                          "language": null,
                          "position": 2,
                          "value": "a2",
                          "content": "1=mild",
                          "content_type": "text/plain",
                          "style_class": null
                        },
                        {
                          "id": "794b5d2d-aa40-4152-8650-221428c91b09",
                          "question_id": "93b066dc-0b19-4723-9674-1205bafdd7e1",
                          "language": null,
                          "position": 3,
                          "value": "a3",
                          "content": "2=moderate",
                          "content_type": "text/plain",
                          "style_class": null
                        },
                        {
                          "id": "4f26ddef-efaa-443d-9e44-d05bc2a3a7a6",
                          "question_id": "93b066dc-0b19-4723-9674-1205bafdd7e1",
                          "language": null,
                          "position": 4,
                          "value": "a4",
                          "content": "3=severe",
                          "content_type": "text/plain",
                          "style_class": null
                        }
                      ],
                      "question-title": null,
                      "content": "Please rate your abdominal pain today",
                      "content_type": "text/plain",
                      "style_class": "dark-style"
                    }
                  ]
                },
                {
                  "id": "72115ceb-13de-4622-b9cb-69fb6a69432b",
                  "task_id": "ee4c5684-418e-4ad6-9e3b-d983182d3574",
                  "name": "outro",
                  "position": 3,
                  "title": "Thanks!",
                  "type": "info",
                  "content": "You've earned 10 points",
                  "content_type": "text/plain",
                  "style_class": "light-style"
                }
              ]
            }
          }
        }
      ]
    },
    {
      "id": "bbcab036-b3c5-4324-a153-3bfee0e3e486",
      "user_id": "cbc76193-e310-4b3a-9217-ef205ca8aff1",
      "position": 4,
      "title": "Sat, Aug 17",
      "created_at": "2020-01-06T20:16:48.611Z",
      "updated_at": "2020-01-06T20:16:48.611Z",
      "tiles": [
        {
          "id": "c28155b3-90ef-438f-a5ce-082dcbf3c9bc",
          "icon": "walk-test",
          "position": 2,
          "style_class": "light-style",
          "type": "task",
          "content": "It's time for a 6-Minute Walk Test",
          "content_type": "text/plain",
          "contents": {
            "heading": "It's time for a 6-Minute Walk Test",
            "alignment": "center"
          },
          "heading": {
            "id": "f704e5b9-8a29-497c-ae63-3f4c2845c8b4",
            "content": "It's time for a 6-Minute Walk Test",
            "content_type": "text/html",
            "style_class": "heading center"
          },
          "button": {
            "label": "Start now",
            "click_action": {
              "position": 1,
              "name": "walk-test",
              "task_id": "88a8830f-29a0-4836-a89e-6d9f8265b8b3",
              "task_details": [
                {
                  "id": "057532a1-a2b0-4039-be0c-75186c10816b",
                  "task_id": "88a8830f-29a0-4836-a89e-6d9f8265b8b3",
                  "name": "intro",
                  "position": 1,
                  "title": "6-Minute Walk Test",
                  "type": "info",
                  "content": "<h1>About this activity</h1><p>Every other week, we'll ask you to complete this task in which you'll do something.</p><h1>Why this activity?</h1><p>This activity will help us understand your stress level by evaluating your XX.</p>",
                  "content_type": "text/html",
                  "style_class": "light-style",
                  "button": {
                    "label": "Let's start"
                  }
                },
                {
                  "id": "50e6073d-3898-4052-ad19-a698389f3fa4",
                  "task_id": "88a8830f-29a0-4836-a89e-6d9f8265b8b3",
                  "name": "walk-test",
                  "position": 2,
                  "options": {
                    "walkDuration": 360,
                    "restDuration": 0,
                    "intendedUseDescription": "Intended use description goes here"
                  }
                },
                {
                  "id": "d28e3ff8-d9ea-48b7-931d-850e3590dbee",
                  "task_id": "88a8830f-29a0-4836-a89e-6d9f8265b8b3",
                  "name": "outro",
                  "position": 3,
                  "title": "Thanks!",
                  "type": "info",
                  "content": "Thanks! You've earned 30 points",
                  "content_type": "text/plain",
                  "style_class": "light-style"
                }
              ]
            }
          }
        },
        {
          "id": "a309c35c-729e-4a08-b69a-8b3f4cf50b60",
          "icon": "camera",
          "position": 1,
          "style_class": "light-style",
          "type": "task",
          "content": "It's time to record a video diary",
          "content_type": "text/plain",
          "contents": {
            "heading": "It's time to record a video diary",
            "alignment": "center"
          },
          "heading": {
            "id": "de34adec-1faa-4820-b902-f20fdb658d8d",
            "content": "It's time to record a video diary",
            "content_type": "text/html",
            "style_class": "heading center"
          },
          "button": {
            "label": "Start now",
            "click_action": {
              "position": 1,
              "name": "video-diary",
              "task_id": "d87806eb-df17-4819-9bfa-2d2e9a7dbe43",
              "task_details": [
                {
                  "id": "5a45237e-4fff-4983-8cb1-977415f8281b",
                  "task_id": "d87806eb-df17-4819-9bfa-2d2e9a7dbe43",
                  "name": "intro",
                  "position": 1,
                  "title": "Video Diary",
                  "type": "info",
                  "content": "<h1>About this activity</h1><p>Every two weeks, we'll ask you to spend a couple of minutes telling us about your stress level, your Crohn's disease symptoms, and how you feel overall. Hold your phone so that your face is visible in the recording.</p><h1>Why this activity?</h1><p>In addition to what you tell us in these videos, we'll study your face to learn more about any mood changes or fatigue you are having.</p><h1>What to talk about?</h1><p>Talk about anything you'd like! We are most interested in learning about the symptoms you've been experiencing over the last two weeks  - any changes in the way you feel.</p><h1>Note</h1><p>Please remember that the video diaries are only for the purpose of research. We will analyze the videos after the study is over. If you need medical care, please talk to your physician.</p>",
                  "content_type": "text/html",
                  "style_class": "light-style",
                  "button": {
                    "label": "Start Activity"
                  }
                },
                {
                  "id": "d645399a-a8e6-43af-be3a-8781f01ad8e7",
                  "task_id": "d87806eb-df17-4819-9bfa-2d2e9a7dbe43",
                  "name": "video-diary",
                  "position": 2,
                  "options": {
                    "recordDuration": 120,
                    "output": "mp4",
                    "switchCamera": true
                  }
                }
              ]
            }
          }
        }
      ]
    },
    {
      "id": "b16e4a71-c1b0-495e-a164-214612902408",
      "user_id": "cbc76193-e310-4b3a-9217-ef205ca8aff1",
      "position": 4,
      "title": "Fri, Aug 16",
      "created_at": "2020-01-06T20:16:48.715Z",
      "updated_at": "2020-01-06T20:16:48.715Z",
      "tiles": [
        {
          "id": "1120fb8a-5f1a-4d2b-bdb3-98cc853b5fc4",
          "position": 7,
          "style_class": "light-style",
          "type": "info",
          "content": "Click to open the Oura app",
          "content_type": "text/plain",
          "contents": {
            "heading": "Click to open the Oura app",
            "body": "The button should go to Oura in the app store if Oura is not installed",
            "alignment": "center"
          },
          "heading": {
            "id": "4105d1f8-a69c-4fc3-b163-aebda6d952b0",
            "content": "Click to open the Oura app",
            "content_type": "text/html",
            "style_class": "heading center"
          },
          "button": {
            "label": "Open Oura",
            "click_action": {
              "type": "openApp",
              "destination": "oura://",
              "app_id": "1043837948"
            }
          }
        },
        {
          "id": "22e60046-2e09-4f94-9253-6b63c620c410",
          "position": 6,
          "style_class": "light-style",
          "type": "info",
          "content": "Click here to be taken to the points info page",
          "content_type": "text/plain",
          "contents": {
            "heading": "Click here to be taken to the points info page",
            "alignment": "center"
          },
          "heading": {
            "id": "f35f8a8d-4e2e-49f3-b3a6-ff859ffa81c3",
            "content": "Click here to be taken to the points info page",
            "content_type": "text/html",
            "style_class": "heading center"
          },
          "button": {
            "label": "Go",
            "click_action": {
              "type": "points"
            }
          }
        },
        {
          "id": "4922f4cb-0e46-4a0b-b53b-33fa9c7ac295",
          "position": 5,
          "style_class": "light-style",
          "type": "info",
          "content": "Click here to be taken to the contact info page",
          "content_type": "text/plain",
          "contents": {
            "heading": "Click here to be taken to the contact info page",
            "alignment": "center"
          },
          "heading": {
            "id": "4d5ad686-a56a-49d8-b7f1-9f9fd95b0f27",
            "content": "Click here to be taken to the contact info page",
            "content_type": "text/html",
            "style_class": "heading center"
          },
          "button": {
            "label": "Go",
            "click_action": {
              "type": "contact"
            }
          }
        },
        {
          "id": "bd0bfae6-368d-406f-a49a-c5de89d2be73",
          "position": 4,
          "style_class": "light-style",
          "type": "info",
          "content": "Click here to be taken to google.com",
          "content_type": "text/plain",
          "contents": {
            "heading": "Click here to be taken to google.com",
            "alignment": "center"
          },
            "heading": {
              "id": "f24f6ddd-d431-429a-a18d-e72a6db4ce96",
              "content": "Click here to be taken to google.com",
              "content_type": "text/html",
              "style_class": "heading center"
            },
            "button": {
              "label": "Go ",
              "click_action": {
                "type": "browser",
                "destination": "https://google.com"
              }
            }
          },
          {
            "id": "c85c42b4-0d2f-47b9-bfbd-75720319761c",
            "position": 3,
            "style_class": "light-style",
            "type": "info",
            "content": "Its been 3 days since we've received data from your Empatica",
            "content_type": "text/plain",
            "contents": {
              "heading": "Its been 3 days since we've received data from your Empatica",
              "body": "Check out the FAQ or contact a member of the study team at (XXX) XXX-XXXX for help",
              "alignment": "left"
            },
            "heading": {
              "id": "e297355e-e23e-4af5-a190-21f6b15e7122",
              "content": "Its been 3 days since we've received data from your Empatica",
              "content_type": "text/html",
              "style_class": "heading left"
            },
            "button": {
              "label": "Visit FAQ",
              "click_action": {
                "type": "faq"
              }
            }
          },
          {
            "id": "87a2e81d-1de5-464d-8b42-93c5b8f37e09",
            "position": 2,
            "style_class": "light-style",
            "type": "info",
            "content": "Every study activity YOU complete contributes to GROUNDBREAKING research!",
            "content_type": "text/plain",
            "contents": {
              "heading": "Every study activity YOU complete contributes to GROUNDBREAKING research!",
              "alignment": "center"
            },
            "heading": {
              "id": "1ccf6447-b200-424c-bf0e-75d410d37849",
              "content": "Every study activity YOU complete contributes to GROUNDBREAKING research!",
              "content_type": "text/html",
              "style_class": "heading center"
            }
          },
          {
            "id": "004a0354-27ee-4dd3-8f03-7432a45333dd",
            "icon": "camera",
            "position": 1,
            "style_class": "light-style",
            "type": "info",
            "content": "You've earned 20 points this month!",
            "content_type": "text/plain",
            "contents": {
              "heading": "You've earned 20 points this month!",
              "body": "The more study activities you complete the more you earn",
              "alignment": "center"
            },
            "heading": {
              "id": "680fdb2f-1ed8-4cf1-9d54-10c4535eb5d7",
              "content": "You've earned 20 points this month!",
              "content_type": "text/html",
              "style_class": "heading center"
            }
          }
        ]
      }
    ]
  }