{
  "section": {
    "type": "single-screen-questions-and-answers",
    "name": "screening-questions",
    "intro": {
      "style": "green-text-white-background",
      "title": "Screening questions",
      "content": "The following questions will help us ensure this study is right for you."
    },
    "outro": {
      "style": "green-text-white-background",
      "response-options": [
        {
          "value": "eligible",
          "title": "You're eligible!",
          "content": "At your first clinic visit, a member of the study team will verify your eligibility. There's a small chance that you will not be able to take part in the study.",
          "next-action": "informed-consent"
        },
        {
          "value": "ineligible",
          "title": "You are not eligible",
          "content": "(Write some nice content here)",
          "next-action": "nothing"
        }
      ]
    }
  },
  "questions": [
    {
      "id": 1,
      "question": "Are you at least 18 years old and less than 66 years old?",
      "question-type": "pick-one",
      "answers": [
        {
          "value": 1,
          "content": "Yes"
        },
        {
          "value": 2,
          "content": "No"
        }
      ]
    },
    {
      "id": 2,
      "question": "Do you have an iPhone?",
      "question-type": "pick-one",
      "answers": [
        {
          "value": 1,
          "content": "Yes"
        },
        {
          "value": 2,
          "content": "No"
        }
      ]
    },
    {
      "id": 3,
      "question": "Has a clinician diagnosed you with Crohn's disease?",
      "question-type": "pick-one",
      "answers": [
        {
          "value": 1,
          "content": "Yes"
        },
        {
          "value": 2,
          "content": "No"
        }
      ]
    }
  ]
}