{
  "type": "task",
  "name": "ema",
  "icon": "icon-heart",
  "contents": {
    "heading": "This tile will never be displayed because we don't have a generic solution for 'quick_activity'.",
    "alignment": "left"
  },
  "button": {
    "label": "Yes",
    "click_action": {
      "task_ref": "ema"
    }
  },
  "referenced_type": "ema",
  "delivery": "daily",
  "first_study_day": 2
}
