{
  "type": "info",
  "style_class": "alert-style",
  "contents": {
    "heading": "We didn't get any steps from your Empatica Embrace yesterday",
    "body": "Sync now by opening the Mate App or click to visit the FAQ page for help",
    "alignment": "left"
  },
  "button": {
    "label": "See FAQ",
    "click_action": {
      "type": "faq"
    }
  }
}
