{
  "type": "info",
  "style_class": "light-style",
  "contents": {
    "heading": "You've earned XXXX points so far this month!",
    "body": "The more study activities you complete, the more you earn.",
    "alignment": "center"
  }
}
