{
  "name": "reaction-time",
  "icon": "reaction-time",
  "style_class": "light-style",
  "type": "task",
  "content": "It's time for a Reaction Time task",
  "content_type": "text/plain",
  "delivery": "odd",
  "first_study_day": 3,
  "contents": {
    "heading": "It's time for a Reaction Time task",
    "alignment": "center"
  },
  "heading": {
    "content": "It's time for a Reaction Time task",
    "content_type": "text/html",
    "style_class": "heading center"
  },
  "button": {
    "label": "Start now",
    "click_action": {
      "task_ref": "reaction-time-task"
    }
  },
  "delivery": "daily,odd",
  "first_study_day": 3,
  "is_persistent": false,
  "referenced_type": "cognitive-task"
}
