{
  "position": 1,
  "type": "info",
  "icon": "check-list",
  "content": "Your next activity will start in DISTANCE.  It will be the NAMETYPE.",
  "contents": {
    "heading": "Your next activity will start in DISTANCE.",
    "body": "It will be the NAMETYPE.",
    "alignment": "center"
  },
  "style_class": "light-style"
}
