{
  "name": "video-diary",
  "icon": "camera",
  "style_class": "light-style",
  "type": "task",
  "content": "It's time to record a video diary",
  "content_type": "text/plain",
  "contents": {
    "heading": "It's time to record a video diary",
    "alignment": "center"
  },
  "button": {
    "label": "Start now",
    "click_action": {
      "task_ref": "video-diary"
    }
  },
  "delivery": "weekly,saturday,even",
  "first_study_day": 2,
  "is_persistent": false,
  "referenced_type": "active-task"
}
