{
  "position": 1,
  "type": "info",
  "icon": "welcome",
  "content": "Welcome to the Stress in Crohn's Study App!",
  "contents": {
    "heading": "Welcome to the study Stress in Crohn's!",
    "body": "A member of the study team will be in touch to confirm your eligibility.",
    "alignment": "center"
  },
  "style_class": "light-style"
}
