{
  "name": "camcog-ebt",
  "task_details": [
    {
      "name": "intro",
      "position": 1,
      "type": "info",
      "content": "<p>You are about to take the Emotional Bias Task</p>",
      "content_type": "text/html",
      "style_class": "light-style",
      "buttons": [
        {
          "label": "Remind me again in an hour",
          "tag": "reminder"
        }
      ],
      "button": {"label": "Let's start" }
    },
    {
      "name": "web-task",
      "position": 2,
      "options": {
        "destination_url": "<%=ENV['CAMCOG_URL']%>/subject/index.html?accessCode=<%=user.roster.camcog_access_code%>&subject=<%=user.roster.camcog_subject_id%>&visitDef=<%=ENV['CAMCOG_VISITDEF']%>&redirectUrl=<%= ERB::Util.url_encode(ENV['PUBLIC_API_URL']+'/app/api/v1/tasks/external-redirect/'+tile_schedule.id)%><%=ENV['CAMCOG_STUDY_URL_PARAMS']%>",
        "complete_url": "<%=ENV['PUBLIC_API_URL']%>/app/api/v1/tasks/external-redirect-done"
      }
    },
    {
      "name": "outro",
      "position": 3,
      "title": "Thanks!",
      "type": "info",
      "content": "Thanks!  You've earned 30 points.",
      "content_type": "text/plain",
      "style_class": "light-style"
    }
  ],
  "format": "",
  "delivery": "weekly,saturday,odd",
  "first_study_day": 3,
  "is_persistent": false,
  "properties": [
    {
      "name": "human-name",
      "value": "Emotional Bias"
    }
  ]
}
