{
  "name": "ema-add-on",
  "format": "one-screen-per-question",
  "task_details": [
    {
      "name": "intro",
      "type": "info",
      "content": "<p>You are about to start an assessment that asks about your mood, energy and stress levels over the past 24 hours. It will take less than one minute to complete.</p>",
      "content_type": "text/html",
      "style_class": "light-style",
      "button": {"label": "Let's start" }
    },
    {
      "survey_ref": "ema-add-on"
    }
  ]
}
