{
  "name": "healthcare-utilization-base",
  "task_details": [
    {
      "name": "intro",
      "type": "info",
      "content": "<p>You are about to start a survey that asks about your contact with the healthcare system for IBD. It is 2 questions and will take about 30 seconds to complete.</p>",
      "content_type": "text/html",
      "style_class": "light-style",
      "button": {"label": "Let's start" }
    },
    {
      "survey_ref": "healthcare-utilization-base"
    }
  ],
  "format": "one-screen-per-question",
  "delivery": "once",
  "first_study_day": 3,
  "is_persistent": true
}
