{
  "name": "survey-response-inclination",
  "task_details": [
    {
      "name": "intro",
      "type": "info",
      "content": "<p>You are about to start a survey that asks about your likeliness to complete surveys. It is 2 questions and will take about 30 seconds to complete.</p>",
      "content_type": "text/html",
      "style_class": "light-style",
      "button": {"label": "Let's start" }
    },
    {
      "survey_ref": "survey-response-inclination"
    }
  ],
  "format": "one-screen-per-question",
  "delivery": "monthly",
  "first_study_day": 29,
  "is_persistent": false
}
