{
  "name": "trail-making-task",
  "task_details": [
    {
      "name": "intro",
      "position": 1,
      "title": "Trail Making Task",
      "type": "info",
      "content": "<p><h1>About this activity</h1><p>Every other day, we'll ask you to complete this task in which you'll tap a sequence of dots.</p></p>",
      "content_type": "text/html",
      "style_class": "light-style",
      "buttons": [
        {
          "label": "Remind me again in an hour",
          "tag": "reminder"
        }
      ],
      "button": {
        "label": "Let's start"
      },
      "reminder_button": {
        "label": "Remind me again in an hour",
        "tag": "reminder"
      }
    },
    {
      "name": "trail-making-task",
      "position": 2,
      "options": {
        "trailType": "ORKTrailMakingTypeIdentifierB",
        "intendedUseDescription": "This activity will help us understand your stress level by evaluating your visual attention and task switching.",
        "trailmakingInstruction": "Do this as quickly as you can without making mistakes"
      }
    },
    {
      "name": "outro",
      "position": 3,
      "title": "Thanks!",
      "type": "info",
      "content": "You've earned 10 points",
      "content_type": "text/plain",
      "style_class": "light-style"
    }
  ],
  "delivery": "daily,even",
  "first_study_day": 2,
  "is_persistent": false
}
