{
  "name": "video-diary",
  "task_details": [
    {
      "name": "intro",
      "position": 1,
      "title": "Video Diary",
      "type": "info",
      "content": "<h1>About this activity></h1><p>Every two weeks, we'll ask you to spend a couple of minutes telling us about your stress level, your Crohn's disease symptoms, and how you feel overall. Hold your phone so that your face is visible in the recording.</p><h1>Why this activity?</h1><p>In addition to what you tell us in these videos, we'll study your face to learn more about any mood changes or fatigue you are having.</p><h1>What to talk about?</h1><p>Talk about anything you'd like! We are most interested in learning about the symptoms you've been experiencing over the last two weeks  - any changes in the way you feel.</p><h1>Note</h1><p>Please remember that the video diaries are only for the purpose of research. We will analyze the videos after the study is over. If you need medical care, please talk to your physician.</p>",
      "content_type": "text/html",
      "style_class": "light-style",
      "buttons": [
        {
          "label": "Remind me again in an hour",
          "tag": "reminder"
        }
      ],
      "button": {
        "label": "Start Activity"
      }
    },
    {
      "name": "video-diary",
      "position": 2,
      "options": {
        "recordDuration": 120,
        "output": "mp4",
        "switchCamera": true
      }
    },
    {
      "name": "outro",
      "position": 3,
      "title": "Thanks!",
      "type": "info",
      "content": "You've earned 30 points",
      "content_type": "text/plain",
      "style_class": "light-style"
    }
  ],
  "delivery": "weekly,saturday,even",
  "first_study_day": 2,
  "is_persistent": false
}
