{
  "name": "emotional-support",
  "title": "Emotional Support",
  "format": "one-screen-per-question",
  "delivery": "monthly",
  "first_study_day": 4,
  "is_persistent": false,
  "questions": [
    {
      "value": "q1",
      "position": 1,
      "content": "I have someone who will listen to me when I need to talk.",
      "content_type": "text/plain",
      "question_type": "pick-one",
      "style_class": "light-style",
      "options": [
        {
          "position": 1,
          "value": "a1",
          "content": "Never",
          "content_type": "text/plain"
        },
        {
          "position": 2,
          "value": "a2",
          "content": "Rarely",
          "content_type": "text/plain"
        },
        {
          "position": 3,
          "value": "a3",
          "content": "Sometimes",
          "content_type": "text/plain"
        },
        {
          "position": 4,
          "value": "a4",
          "content": "Usually",
          "content_type": "text/plain"
        },
        {
          "position": 5,
          "value": "a5",
          "content": "Always",
          "content_type": "text/plain"
        }
      ]
    },
    {
      "value": "q2",
      "position": 2,
      "content": "I have someone to confide in or talk to about myself or my problems.",
      "content_type": "text/plain",
      "question_type": "pick-one",
      "style_class": "light-style",
      "options": [
        {
          "position": 1,
          "value": "a1",
          "content": "Never",
          "content_type": "text/plain"
        },
        {
          "position": 2,
          "value": "a2",
          "content": "Rarely",
          "content_type": "text/plain"
        },
        {
          "position": 3,
          "value": "a3",
          "content": "Sometimes",
          "content_type": "text/plain"
        },
        {
          "position": 4,
          "value": "a4",
          "content": "Usually",
          "content_type": "text/plain"
        },
        {
          "position": 5,
          "value": "a5",
          "content": "Always",
          "content_type": "text/plain"
        }
      ]
    },
    {
      "value": "q3",
      "position": 3,
      "content": "I have someone who makes me feel appreciated.",
      "content_type": "text/plain",
      "question_type": "pick-one",
      "style_class": "light-style",
      "options": [
        {
          "position": 1,
          "value": "a1",
          "content": "Never",
          "content_type": "text/plain"
        },
        {
          "position": 2,
          "value": "a2",
          "content": "Rarely",
          "content_type": "text/plain"
        },
        {
          "position": 3,
          "value": "a3",
          "content": "Sometimes",
          "content_type": "text/plain"
        },
        {
          "position": 4,
          "value": "a4",
          "content": "Usually",
          "content_type": "text/plain"
        },
        {
          "position": 5,
          "value": "a5",
          "content": "Always",
          "content_type": "text/plain"
        }
      ]
    },
    {
      "value": "q4",
      "position": 4,
      "content": "I have someone to talk with when I have a bad day.",
      "content_type": "text/plain",
      "question_type": "pick-one",
      "style_class": "light-style",
      "options": [
        {
          "position": 1,
          "value": "a1",
          "content": "Never",
          "content_type": "text/plain"
        },
        {
          "position": 2,
          "value": "a2",
          "content": "Rarely",
          "content_type": "text/plain"
        },
        {
          "position": 3,
          "value": "a3",
          "content": "Sometimes",
          "content_type": "text/plain"
        },
        {
          "position": 4,
          "value": "a4",
          "content": "Usually",
          "content_type": "text/plain"
        },
        {
          "position": 5,
          "value": "a5",
          "content": "Always",
          "content_type": "text/plain"
        }
      ]
    }
  ]
}
