{
    "name": "life-events",
    "title": "Life Events",
    "format": "one-screen-per-question",
    "delivery": "once",
    "first_study_day": 90,
    "is_persistent": true,
    "questions": [
      {
        "value": "q1",
        "position": 1,
        "content": "Have you moved during the last 12 months?",
        "content_type": "text/plain",
        "question_type": "pick-one",
        "style_class": "light-style",
        "options": [
          {
            "position": 1,
            "value": "a1",
            "content": "No",
            "content_type": "text/plain",
            "targets": [
                {
                  "question_id": "7f73a5ee-f4a8-4b3a-86e0-5a1e20263429"
                }
              ]
          },
          {
            "position": 2,
            "value": "a2",
            "content": "Yes",
            "content_type": "text/plain"
          }
        ]
      },
      {
        "value": "q1a",
        "position": 2,
        "content": "Overall, would you say that your moving was a good or bad experience?",
        "content_type": "text/plain",
        "question_type": "pick-one",
        "style_class": "light-style",
        "options": [
          {
            "position": 1,
            "value": "a1",
            "content": "Very good",
            "content_type": "text/plain"
          },
          {
            "position": 2,
            "value": "a2",
            "content": "Moderately good",
            "content_type": "text/plain"
          },
          {
            "position": 3,
            "value": "a3",
            "content": "Slightly good",
            "content_type": "text/plain"
          },
          {
            "position": 4,
            "value": "a4",
            "content": "Slightly bad",
            "content_type": "text/plain"
          },
          {
            "position": 5,
            "value": "a5",
            "content": "Moderately bad",
            "content_type": "text/plain"
          },
          {
            "position": 6,
            "value": "a6",
            "content": "Very bad",
            "content_type": "text/plain"
          }
        ]
      },
      {
        "id": "7f73a5ee-f4a8-4b3a-86e0-5a1e20263429",
        "value": "q2",
        "position": 3,
        "content": "Have you broken off an engagement to be married, ended an intimate relationship or separated or divorced from your spouse during the last 12 months?",
        "content_type": "text/plain",
        "question_type": "pick-one",
        "style_class": "light-style",
        "options": [
          {
            "position": 1,
            "value": "a1",
            "content": "No",
            "content_type": "text/plain",
            "targets": [
                {
                  "question_id": "d4d3a8d0-c638-4096-8b8e-a4d0f3ac6ac8"
                }
              ]
          },
          {
            "position": 2,
            "value": "a2",
            "content": "Yes",
            "content_type": "text/plain"
          }
        ]
      },
      {
        "value": "q2a",
        "position": 4,
        "content": "How would you rate your feelings about breaking up?",
        "content_type": "text/plain",
        "question_type": "pick-one",
        "style_class": "light-style",
        "options": [
          {
            "position": 1,
            "value": "a1",
            "content": "Very good",
            "content_type": "text/plain"
          },
          {
            "position": 2,
            "value": "a2",
            "content": "Moderately good",
            "content_type": "text/plain"
          },
          {
            "position": 3,
            "value": "a3",
            "content": "Slightly good",
            "content_type": "text/plain"
          },
          {
            "position": 4,
            "value": "a4",
            "content": "Slightly bad",
            "content_type": "text/plain"
          },
          {
            "position": 5,
            "value": "a5",
            "content": "Moderately bad",
            "content_type": "text/plain"
          },
          {
            "position": 6,
            "value": "a6",
            "content": "Very bad",
            "content_type": "text/plain"
          }
        ]
      },
      {
        "id": "d4d3a8d0-c638-4096-8b8e-a4d0f3ac6ac8",
        "value": "q3",
        "position": 5,
        "content": "Did someone you were close to die during the last 12 months?",
        "content_type": "text/plain",
        "question_type": "pick-one",
        "style_class": "light-style",
        "options": [
          {
            "position": 1,
            "value": "a1",
            "content": "No",
            "content_type": "text/plain"
          },
          {
            "position": 2,
            "value": "a2",
            "content": "Yes",
            "content_type": "text/plain"
          }
        ]
      },
      {
        "value": "q4",
        "position": 6,
        "content": "Have you had any important relationship, for example, with your spouse, a close friend, your boss, or a family member become significantly worse during the last 12 months?",
        "content_type": "text/plain",
        "question_type": "pick-one",
        "style_class": "light-style",
        "options": [
          {
            "position": 1,
            "value": "a1",
            "content": "No",
            "content_type": "text/plain"
          },
          {
            "position": 2,
            "value": "a2",
            "content": "Yes",
            "content_type": "text/plain"
          }
        ]
      },
      {
        "value": "q5",
        "position": 7,
        "content": "Have you, a very close friend, or close family member been hospitalized for a serious (life-threatening) illness during the last 12 months?",
        "content_type": "text/plain",
        "question_type": "pick-one",
        "style_class": "light-style",
        "options": [
          {
            "position": 1,
            "value": "a1",
            "content": "No",
            "content_type": "text/plain",
            "targets": [
                {
                  "question_id": "dd2fd200-9143-4f14-a1e8-ed92cba972b6"
                }
              ]
          },
          {
            "position": 2,
            "value": "a2",
            "content": "Yes",
            "content_type": "text/plain"
          }
        ]
      },
      {
        "value": "q5a",
        "position": 8,
        "content": "Who?",
        "content_type": "text/plain",
        "question_type": "pick-many",
        "style_class": "light-style",
        "options": [
          {
            "position": 1,
            "value": "a1",
            "content": "You",
            "content_type": "text/plain"
          },
          {
            "position": 2,
            "value": "a2",
            "content": "Spouse/partner",
            "content_type": "text/plain"
          },
          {
            "position": 3,
            "value": "a3",
            "content": "Child",
            "content_type": "text/plain"
          },
          {
            "position": 4,
            "value": "a4",
            "content": "Parent",
            "content_type": "text/plain"
          },
          {
            "position": 5,
            "value": "a5",
            "content": "Spouse's parent",
            "content_type": "text/plain"
          },
          {
            "position": 6,
            "value": "a6",
            "content": "Brother or sister",
            "content_type": "text/plain"
          },
          {
            "position": 7,
            "value": "a7",
            "content": "Friend",
            "content_type": "text/plain"
          },
          {
            "position": 8,
            "value": "a8",
            "content": "Other",
            "content_type": "text/plain"
          }
        ]
      },
      {
        "id": "dd2fd200-9143-4f14-a1e8-ed92cba972b6",
        "value": "q6",
        "position": 9,
        "content": "Have you or your spouse/partner lost or changed jobs or been involuntarily unemployed during the last 12 months?",
        "content_type": "text/plain",
        "question_type": "pick-one",
        "style_class": "light-style",
        "options": [
          {
            "position": 1,
            "value": "a1",
            "content": "No",
            "content_type": "text/plain",
            "targets": [
                {
                  "question_id": "559a58e5-b6ce-4bc5-b4f5-78f74a4809bd"
                }
              ]
          },
          {
            "position": 2,
            "value": "a2",
            "content": "Yes",
            "content_type": "text/plain"
          }
        ]
      },
      {
        "value": "q6a",
        "position": 10,
        "content": "Who?",
        "content_type": "text/plain",
        "question_type": "pick-many",
        "style_class": "light-style",
        "options": [
          {
            "position": 1,
            "value": "a1",
            "content": "You",
            "content_type": "text/plain"
          },
          {
            "position": 2,
            "value": "a2",
            "content": "Spouse/partner",
            "content_type": "text/plain"
          },
          {
            "position": 3,
            "value": "a3",
            "content": "Both",
            "content_type": "text/plain"
          }
        ]
      },
      {
        "value": "q6b",
        "position": 11,
        "content": "How would you rate your feelings about leaving your job? (or your spouse leaving his/her job)",
        "content_type": "text/plain",
        "question_type": "pick-many",
        "style_class": "light-style",
        "options": [
            {
              "position": 1,
              "value": "a1",
              "content": "Very good",
              "content_type": "text/plain"
            },
            {
              "position": 2,
              "value": "a2",
              "content": "Moderately good",
              "content_type": "text/plain"
            },
            {
              "position": 3,
              "value": "a3",
              "content": "Slightly good",
              "content_type": "text/plain"
            },
            {
              "position": 4,
              "value": "a4",
              "content": "Slightly bad",
              "content_type": "text/plain"
            },
            {
              "position": 5,
              "value": "a5",
              "content": "Moderately bad",
              "content_type": "text/plain"
            },
            {
              "position": 6,
              "value": "a6",
              "content": "Very bad",
              "content_type": "text/plain"
            }
          ]
      },
      {
        "id": "559a58e5-b6ce-4bc5-b4f5-78f74a4809bd",
        "value": "q7",
        "position": 12,
        "content": "Has your house been broken into and/or burgled during the last 12 months?",
        "content_type": "text/plain",
        "question_type": "pick-one",
        "style_class": "light-style",
        "options": [
          {
            "position": 1,
            "value": "a1",
            "content": "No",
            "content_type": "text/plain"
          },
          {
            "position": 2,
            "value": "a2",
            "content": "Yes",
            "content_type": "text/plain"
          }
        ]
      },
      {
        "value": "q8",
        "position": 13,
        "content": "Have you or your spouse/partner or other member of your immediate family been assaulted or mugged during the last 12 months?",
        "content_type": "text/plain",
        "question_type": "pick-one",
        "style_class": "light-style",
        "options": [
          {
            "position": 1,
            "value": "a1",
            "content": "No",
            "content_type": "text/plain",
            "targets": [
                {
                  "question_id": "2480703d-f97b-47eb-8b76-56026346e732"
                }
              ]
          },
          {
            "position": 2,
            "value": "a2",
            "content": "Yes",
            "content_type": "text/plain"
          }
        ]
      },
      {
        "value": "q8a",
        "position": 14,
        "content": "Who?",
        "content_type": "text/plain",
        "question_type": "pick-many",
        "style_class": "light-style",
        "options": [
          {
            "position": 1,
            "value": "a1",
            "content": "You",
            "content_type": "text/plain"
          },
          {
            "position": 2,
            "value": "a2",
            "content": "Spouse/partner",
            "content_type": "text/plain"
          },
          {
            "position": 3,
            "value": "a3",
            "content": "Child",
            "content_type": "text/plain"
          },
          {
            "position": 4,
            "value": "a4",
            "content": "Parent",
            "content_type": "text/plain"
          },
          {
            "position": 5,
            "value": "a5",
            "content": "Spouse's parent",
            "content_type": "text/plain"
          },
          {
            "position": 6,
            "value": "a6",
            "content": "Brother or sister",
            "content_type": "text/plain"
          },
          {
            "position": 7,
            "value": "a7",
            "content": "Friend",
            "content_type": "text/plain"
          },
          {
            "position": 8,
            "value": "a8",
            "content": "Other",
            "content_type": "text/plain"
          }
        ]
      },
      {
        "id": "2480703d-f97b-47eb-8b76-56026346e732",
        "value": "q9",
        "position": 15,
        "content": "Have you had a pet (animal) to whom you were attached die, or get lost, or did you have to give away during the last 12 months?",
        "content_type": "text/plain",
        "question_type": "pick-one",
        "style_class": "light-style",
        "options": [
          {
            "position": 1,
            "value": "a1",
            "content": "No",
            "content_type": "text/plain"
          },
          {
            "position": 2,
            "value": "a2",
            "content": "Yes",
            "content_type": "text/plain"
          }
        ]
      },
      {
        "value": "q10",
        "position": 16,
        "content": "Other than the events we have already asked about, have any other important things happened to you or to a very close friend or close family member in the last 12 months that made that period significantly different from a typical year?",
        "content_type": "text/plain",
        "question_type": "pick-one",
        "style_class": "light-style",
        "options": [
          {
            "position": 1,
            "value": "a1",
            "content": "No",
            "content_type": "text/plain",
            "targets": [
                {
                  "question_id": "exit"
                }
              ]
          },
          {
            "position": 2,
            "value": "a2",
            "content": "Yes",
            "content_type": "text/plain"
          }
        ]
      },
      {
        "value": "q10a",
        "position": 17,
        "content": "Please list this event and include more than one if applicable",
        "content_type": "text/plain",
        "question_type": "text-input",
        "style_class": "light-style",
        "details": {
            "option_type": "text-input",
            "max_characters": 1000
        }
      },
      {
        "value": "q10b",
        "position": 18,
        "content": "If yes to 10: How would you rate your feelings about this event?",
        "content_type": "text/plain",
        "question_type": "pick-many",
        "style_class": "light-style",
        "options": [
            {
              "position": 1,
              "value": "a1",
              "content": "Very good",
              "content_type": "text/plain"
            },
            {
              "position": 2,
              "value": "a2",
              "content": "Moderately good",
              "content_type": "text/plain"
            },
            {
              "position": 3,
              "value": "a3",
              "content": "Slightly good",
              "content_type": "text/plain"
            },
            {
              "position": 4,
              "value": "a4",
              "content": "Slightly bad",
              "content_type": "text/plain"
            },
            {
              "position": 5,
              "value": "a5",
              "content": "Moderately bad",
              "content_type": "text/plain"
            },
            {
              "position": 6,
              "value": "a6",
              "content": "Very bad",
              "content_type": "text/plain"
            }
          ]
      }
    ]
  }
  