{
    "name": "manitoba-ibd",
    "title": "Manitoba IBD Index",
    "format": "one-screen-per-question",
    "delivery": "once",
    "first_study_day": 4,
    "is_persistent": false,
    "questions": [
      {
        "value": "q1",
        "position": 1,
        "content": "In the past 6 months my disease has been... (select one)",
        "content_type": "text/plain",
        "question_type": "pick-one",
        "style_class": "light-style",
        "options": [
          {
            "position": 1,
            "value": "a1",
            "content": "Constantly active, giving me symptoms every day",
            "content_type": "text/plain"
          },
          {
            "position": 2,
            "value": "a2",
            "content": "Often active, giving me symptoms on most days",
            "content_type": "text/plain"
          },
          {
            "position": 3,
            "value": "a3",
            "content": "Sometimes active, giving me symptoms on some days (for instance 1 to 2 days per week)",
            "content_type": "text/plain"
          },
          {
            "position": 4,
            "value": "a4",
            "content": "Occasionally active, giving me symptoms 1 to 2 days per month",
            "content_type": "text/plain"
          },
          {
            "position": 5,
            "value": "a5",
            "content": "Rarely active, giving me symptoms on a few days in the past 6 months",
            "content_type": "text/plain"
          },
          {
            "position": 6,
            "value": "a6",
            "content": "I was well in the past 6 months, what I consider a remission or absence of symptoms",
            "content_type": "text/plain"
          }
        ]
      }
    ]
  }
  