{
  "name": "oci",
  "title": "Obsessive Compulsive Inventory",
  "format": "one-screen-per-question",
  "delivery": "once",
  "first_study_day": 91,
  "is_persistent": true,
  "questions": [
    {
      "value": "q1",
      "position": 1,
      "content": "The following statements refer to experiences that many people have in their everyday lives. Choose the number that best describes HOW MUCH that experience has DISTRESSED or BOTHERED you during the PAST MONTH.\n\n I have saved up so many things that they get in the way.",
      "content_type": "text/plain",
      "question_type": "pick-one",
      "style_class": "light-style",
      "options": [
        {
          "position": 1,
          "value": "a1",
          "content": "0 - Not at all",
          "content_type": "text/plain"
        },
        {
          "position": 2,
          "value": "a2",
          "content": "1 - A little",
          "content_type": "text/plain"
        },
        {
          "position": 3,
          "value": "a3",
          "content": "2 - Moderately",
          "content_type": "text/plain"
        },
        {
          "position": 4,
          "value": "a4",
          "content": "3 - A lot",
          "content_type": "text/plain"
        },
        {
          "position": 5,
          "value": "a5",
          "content": "4 - Extremely",
          "content_type": "text/plain"
        }
      ]
    },
    {
      "value": "q2",
      "position": 2,
      "content": "The following statements refer to experiences that many people have in their everyday lives. Choose the number that best describes HOW MUCH that experience has DISTRESSED or BOTHERED you during the PAST MONTH.\n\n I check things more often than necessary.",
      "content_type": "text/plain",
      "question_type": "pick-one",
      "style_class": "light-style",
      "options": [
        {
          "position": 1,
          "value": "a1",
          "content": "0 - Not at all",
          "content_type": "text/plain"
        },
        {
          "position": 2,
          "value": "a2",
          "content": "1 - A little",
          "content_type": "text/plain"
        },
        {
          "position": 3,
          "value": "a3",
          "content": "2 - Moderately",
          "content_type": "text/plain"
        },
        {
          "position": 4,
          "value": "a4",
          "content": "3 - A lot",
          "content_type": "text/plain"
        },
        {
          "position": 5,
          "value": "a5",
          "content": "4 - Extremely",
          "content_type": "text/plain"
        }
      ]
    },
    {
      "value": "q3",
      "position": 3,
      "content": "The following statements refer to experiences that many people have in their everyday lives. Choose the number that best describes HOW MUCH that experience has DISTRESSED or BOTHERED you during the PAST MONTH.\n\n I get upset if objects are not arranged properly.",
      "content_type": "text/plain",
      "question_type": "pick-one",
      "style_class": "light-style",
      "options": [
        {
          "position": 1,
          "value": "a1",
          "content": "0 - Not at all",
          "content_type": "text/plain"
        },
        {
          "position": 2,
          "value": "a2",
          "content": "1 - A little",
          "content_type": "text/plain"
        },
        {
          "position": 3,
          "value": "a3",
          "content": "2 - Moderately",
          "content_type": "text/plain"
        },
        {
          "position": 4,
          "value": "a4",
          "content": "3 - A lot",
          "content_type": "text/plain"
        },
        {
          "position": 5,
          "value": "a5",
          "content": "4 - Extremely",
          "content_type": "text/plain"
        }
      ]
    },
    {
      "value": "q4",
      "position": 4,
      "content": "The following statements refer to experiences that many people have in their everyday lives. Choose the number that best describes HOW MUCH that experience has DISTRESSED or BOTHERED you during the PAST MONTH.\n\n I feel compelled to count while I am doing things.",
      "content_type": "text/plain",
      "question_type": "pick-one",
      "style_class": "light-style",
      "options": [
        {
          "position": 1,
          "value": "a1",
          "content": "0 - Not at all",
          "content_type": "text/plain"
        },
        {
          "position": 2,
          "value": "a2",
          "content": "1 - A little",
          "content_type": "text/plain"
        },
        {
          "position": 3,
          "value": "a3",
          "content": "2 - Moderately",
          "content_type": "text/plain"
        },
        {
          "position": 4,
          "value": "a4",
          "content": "3 - A lot",
          "content_type": "text/plain"
        },
        {
          "position": 5,
          "value": "a5",
          "content": "4 - Extremely",
          "content_type": "text/plain"
        }
      ]
    },
    {
      "value": "q5",
      "position": 5,
      "content": "The following statements refer to experiences that many people have in their everyday lives. Choose the number that best describes HOW MUCH that experience has DISTRESSED or BOTHERED you during the PAST MONTH.\n\n I find it difficult to touch an object when I know it has been touched by strangers or certain people.",
      "content_type": "text/plain",
      "question_type": "pick-one",
      "style_class": "light-style",
      "options": [
        {
          "position": 1,
          "value": "a1",
          "content": "0 - Not at all",
          "content_type": "text/plain"
        },
        {
          "position": 2,
          "value": "a2",
          "content": "1 - A little",
          "content_type": "text/plain"
        },
        {
          "position": 3,
          "value": "a3",
          "content": "2 - Moderately",
          "content_type": "text/plain"
        },
        {
          "position": 4,
          "value": "a4",
          "content": "3 - A lot",
          "content_type": "text/plain"
        },
        {
          "position": 5,
          "value": "a5",
          "content": "4 - Extremely",
          "content_type": "text/plain"
        }
      ]
    },
    {
      "value": "q6",
      "position": 6,
      "content": "The following statements refer to experiences that many people have in their everyday lives. Choose the number that best describes HOW MUCH that experience has DISTRESSED or BOTHERED you during the PAST MONTH.\n\n I find it difficult to control my own thoughts.",
      "content_type": "text/plain",
      "question_type": "pick-one",
      "style_class": "light-style",
      "options": [
        {
          "position": 1,
          "value": "a1",
          "content": "0 - Not at all",
          "content_type": "text/plain"
        },
        {
          "position": 2,
          "value": "a2",
          "content": "1 - A little",
          "content_type": "text/plain"
        },
        {
          "position": 3,
          "value": "a3",
          "content": "2 - Moderately",
          "content_type": "text/plain"
        },
        {
          "position": 4,
          "value": "a4",
          "content": "3 - A lot",
          "content_type": "text/plain"
        },
        {
          "position": 5,
          "value": "a5",
          "content": "4 - Extremely",
          "content_type": "text/plain"
        }
      ]
    },
    {
      "value": "q7",
      "position": 7,
      "content": "The following statements refer to experiences that many people have in their everyday lives. Choose the number that best describes HOW MUCH that experience has DISTRESSED or BOTHERED you during the PAST MONTH.\n\n I collect things I don't need.",
      "content_type": "text/plain",
      "question_type": "pick-one",
      "style_class": "light-style",
      "options": [
        {
          "position": 1,
          "value": "a1",
          "content": "0 - Not at all",
          "content_type": "text/plain"
        },
        {
          "position": 2,
          "value": "a2",
          "content": "1 - A little",
          "content_type": "text/plain"
        },
        {
          "position": 3,
          "value": "a3",
          "content": "2 - Moderately",
          "content_type": "text/plain"
        },
        {
          "position": 4,
          "value": "a4",
          "content": "3 - A lot",
          "content_type": "text/plain"
        },
        {
          "position": 5,
          "value": "a5",
          "content": "4 - Extremely",
          "content_type": "text/plain"
        }
      ]
    },
    {
      "value": "q8",
      "position": 8,
      "content": "The following statements refer to experiences that many people have in their everyday lives. Choose the number that best describes HOW MUCH that experience has DISTRESSED or BOTHERED you during the PAST MONTH:\n\n I repeatedly check doors, windows, drawers, etc.",
      "content_type": "text/plain",
      "question_type": "pick-one",
      "style_class": "light-style",
      "options": [
        {
          "position": 1,
          "value": "a1",
          "content": "0 - Not at all",
          "content_type": "text/plain"
        },
        {
          "position": 2,
          "value": "a2",
          "content": "1 - A little",
          "content_type": "text/plain"
        },
        {
          "position": 3,
          "value": "a3",
          "content": "2 - Moderately",
          "content_type": "text/plain"
        },
        {
          "position": 4,
          "value": "a4",
          "content": "3 - A lot",
          "content_type": "text/plain"
        },
        {
          "position": 5,
          "value": "a5",
          "content": "4 - Extremely",
          "content_type": "text/plain"
        }
      ]
    },
    {
      "value": "q9",
      "position": 9,
      "content": "The following statements refer to experiences that many people have in their everyday lives. Choose the number that best describes HOW MUCH that experience has DISTRESSED or BOTHERED you during the PAST MONTH.\n\n I get upset if others change the way I have arranged things.",
      "content_type": "text/plain",
      "question_type": "pick-one",
      "style_class": "light-style",
      "options": [
        {
          "position": 1,
          "value": "a1",
          "content": "0 - Not at all",
          "content_type": "text/plain"
        },
        {
          "position": 2,
          "value": "a2",
          "content": "1 - A little",
          "content_type": "text/plain"
        },
        {
          "position": 3,
          "value": "a3",
          "content": "2 - Moderately",
          "content_type": "text/plain"
        },
        {
          "position": 4,
          "value": "a4",
          "content": "3 - A lot",
          "content_type": "text/plain"
        },
        {
          "position": 5,
          "value": "a5",
          "content": "4 - Extremely",
          "content_type": "text/plain"
        }
      ]
    },
    {
      "value": "q10",
      "position": 10,
      "content": "The following statements refer to experiences that many people have in their everyday lives. Choose the number that best describes HOW MUCH that experience has DISTRESSED or BOTHERED you during the PAST MONTH.\n\n I feel I have to repeat certain numbers.",
      "content_type": "text/plain",
      "question_type": "pick-one",
      "style_class": "light-style",
      "options": [
        {
          "position": 1,
          "value": "a1",
          "content": "0 - Not at all",
          "content_type": "text/plain"
        },
        {
          "position": 2,
          "value": "a2",
          "content": "1 - A little",
          "content_type": "text/plain"
        },
        {
          "position": 3,
          "value": "a3",
          "content": "2 - Moderately",
          "content_type": "text/plain"
        },
        {
          "position": 4,
          "value": "a4",
          "content": "3 - A lot",
          "content_type": "text/plain"
        },
        {
          "position": 5,
          "value": "a5",
          "content": "4 - Extremely",
          "content_type": "text/plain"
        }
      ]
    },
    {
      "value": "q11",
      "position": 11,
      "content": "The following statements refer to experiences that many people have in their everyday lives. Choose the number that best describes HOW MUCH that experience has DISTRESSED or BOTHERED you during the PAST MONTH.\n\n I sometimes have to wash or clean myself simply because I feel contaminated.",
      "content_type": "text/plain",
      "question_type": "pick-one",
      "style_class": "light-style",
      "options": [
        {
          "position": 1,
          "value": "a1",
          "content": "0 - Not at all",
          "content_type": "text/plain"
        },
        {
          "position": 2,
          "value": "a2",
          "content": "1 - A little",
          "content_type": "text/plain"
        },
        {
          "position": 3,
          "value": "a3",
          "content": "2 - Moderately",
          "content_type": "text/plain"
        },
        {
          "position": 4,
          "value": "a4",
          "content": "3 - A lot",
          "content_type": "text/plain"
        },
        {
          "position": 5,
          "value": "a5",
          "content": "4 - Extremely",
          "content_type": "text/plain"
        }
      ]
    },
    {
      "value": "q12",
      "position": 12,
      "content": "The following statements refer to experiences that many people have in their everyday lives. Choose the number that best describes HOW MUCH that experience has DISTRESSED or BOTHERED you during the PAST MONTH.\n\n I am upset by unpleasant thoughts that come into my mind against my will.",
      "content_type": "text/plain",
      "question_type": "pick-one",
      "style_class": "light-style",
      "options": [
        {
          "position": 1,
          "value": "a1",
          "content": "0 - Not at all",
          "content_type": "text/plain"
        },
        {
          "position": 2,
          "value": "a2",
          "content": "1 - A little",
          "content_type": "text/plain"
        },
        {
          "position": 3,
          "value": "a3",
          "content": "2 - Moderately",
          "content_type": "text/plain"
        },
        {
          "position": 4,
          "value": "a4",
          "content": "3 - A lot",
          "content_type": "text/plain"
        },
        {
          "position": 5,
          "value": "a5",
          "content": "4 - Extremely",
          "content_type": "text/plain"
        }
      ]
    },
    {
      "value": "q13",
      "position": 13,
      "content": "The following statements refer to experiences that many people have in their everyday lives. Choose the number that best describes HOW MUCH that experience has DISTRESSED or BOTHERED you during the PAST MONTH.\n\n I avoid throwing things away because I am afraid I might need them later.",
      "content_type": "text/plain",
      "question_type": "pick-one",
      "style_class": "light-style",
      "options": [
        {
          "position": 1,
          "value": "a1",
          "content": "0 - Not at all",
          "content_type": "text/plain"
        },
        {
          "position": 2,
          "value": "a2",
          "content": "1 - A little",
          "content_type": "text/plain"
        },
        {
          "position": 3,
          "value": "a3",
          "content": "2 - Moderately",
          "content_type": "text/plain"
        },
        {
          "position": 4,
          "value": "a4",
          "content": "3 - A lot",
          "content_type": "text/plain"
        },
        {
          "position": 5,
          "value": "a5",
          "content": "4 - Extremely",
          "content_type": "text/plain"
        }
      ]
    },
    {
      "value": "q14",
      "position": 14,
      "content": "The following statements refer to experiences that many people have in their everyday lives. Choose the number that best describes HOW MUCH that experience has DISTRESSED or BOTHERED you during the PAST MONTH.\n\n I repeatedly check gas and water taps and light switches after turning them off.",
      "content_type": "text/plain",
      "question_type": "pick-one",
      "style_class": "light-style",
      "options": [
        {
          "position": 1,
          "value": "a1",
          "content": "0 - Not at all",
          "content_type": "text/plain"
        },
        {
          "position": 2,
          "value": "a2",
          "content": "1 - A little",
          "content_type": "text/plain"
        },
        {
          "position": 3,
          "value": "a3",
          "content": "2 - Moderately",
          "content_type": "text/plain"
        },
        {
          "position": 4,
          "value": "a4",
          "content": "3 - A lot",
          "content_type": "text/plain"
        },
        {
          "position": 5,
          "value": "a5",
          "content": "4 - Extremely",
          "content_type": "text/plain"
        }
      ]
    },
    {
      "value": "q15",
      "position": 15,
      "content": "The following statements refer to experiences that many people have in their everyday lives. Choose the number that best describes HOW MUCH that experience has DISTRESSED or BOTHERED you during the PAST MONTH.\n\n I need things to be arranged in a particular way.",
      "content_type": "text/plain",
      "question_type": "pick-one",
      "style_class": "light-style",
      "options": [
        {
          "position": 1,
          "value": "a1",
          "content": "0 - Not at all",
          "content_type": "text/plain"
        },
        {
          "position": 2,
          "value": "a2",
          "content": "1 - A little",
          "content_type": "text/plain"
        },
        {
          "position": 3,
          "value": "a3",
          "content": "2 - Moderately",
          "content_type": "text/plain"
        },
        {
          "position": 4,
          "value": "a4",
          "content": "3 - A lot",
          "content_type": "text/plain"
        },
        {
          "position": 5,
          "value": "a5",
          "content": "4 - Extremely",
          "content_type": "text/plain"
        }
      ]
    },
    {
      "value": "q16",
      "position": 16,
      "content": "The following statements refer to experiences that many people have in their everyday lives. Choose the number that best describes HOW MUCH that experience has DISTRESSED or BOTHERED you during the PAST MONTH.\n\n I feel that there are good and bad numbers.",
      "content_type": "text/plain",
      "question_type": "pick-one",
      "style_class": "light-style",
      "options": [
        {
          "position": 1,
          "value": "a1",
          "content": "0 - Not at all",
          "content_type": "text/plain"
        },
        {
          "position": 2,
          "value": "a2",
          "content": "1 - A little",
          "content_type": "text/plain"
        },
        {
          "position": 3,
          "value": "a3",
          "content": "2 - Moderately",
          "content_type": "text/plain"
        },
        {
          "position": 4,
          "value": "a4",
          "content": "3 - A lot",
          "content_type": "text/plain"
        },
        {
          "position": 5,
          "value": "a5",
          "content": "4 - Extremely",
          "content_type": "text/plain"
        }
      ]
    },
    {
      "value": "q17",
      "position": 17,
      "content": "The following statements refer to experiences that many people have in their everyday lives. Choose the number that best describes HOW MUCH that experience has DISTRESSED or BOTHERED you during the PAST MONTH.\n\n I wash my hands more often and longer than necessary.",
      "content_type": "text/plain",
      "question_type": "pick-one",
      "style_class": "light-style",
      "options": [
        {
          "position": 1,
          "value": "a1",
          "content": "0 - Not at all",
          "content_type": "text/plain"
        },
        {
          "position": 2,
          "value": "a2",
          "content": "1 - A little",
          "content_type": "text/plain"
        },
        {
          "position": 3,
          "value": "a3",
          "content": "2 - Moderately",
          "content_type": "text/plain"
        },
        {
          "position": 4,
          "value": "a4",
          "content": "3 - A lot",
          "content_type": "text/plain"
        },
        {
          "position": 5,
          "value": "a5",
          "content": "4 - Extremely",
          "content_type": "text/plain"
        }
      ]
    },
    {
      "value": "q18",
      "position": 18,
      "content": "The following statements refer to experiences that many people have in their everyday lives. Choose the number that best describes HOW MUCH that experience has DISTRESSED or BOTHERED you during the PAST MONTH.\n\n I frequently get nasty thoughts and have difficulty getting rid of them.",
      "content_type": "text/plain",
      "question_type": "pick-one",
      "style_class": "light-style",
      "options": [
        {
          "position": 1,
          "value": "a1",
          "content": "0 - Not at all",
          "content_type": "text/plain"
        },
        {
          "position": 2,
          "value": "a2",
          "content": "1 - A little",
          "content_type": "text/plain"
        },
        {
          "position": 3,
          "value": "a3",
          "content": "2 - Moderately",
          "content_type": "text/plain"
        },
        {
          "position": 4,
          "value": "a4",
          "content": "3 - A lot",
          "content_type": "text/plain"
        },
        {
          "position": 5,
          "value": "a5",
          "content": "4 - Extremely",
          "content_type": "text/plain"
        }
      ]
    }
  ]
}
