{
  "name": "sleep-disturbance",
  "title": "Sleep Disturbance",
  "format": "one-screen-per-question",
  "delivery": "weekly",
  "first_study_day": 6,
  "is_persistent": false,
  "questions": [
    {
      "value": "q1",
      "position": 1,
      "content": "In the past 7 days:\n\nMy sleep was refreshing",
      "content_type": "text/plain",
      "question_type": "pick-one",
      "style_class": "light-style",
      "options": [
        {
          "position": 1,
          "value": "a1",
          "content": "Not at all",
          "content_type": "text/plain"
        },
        {
          "position": 2,
          "value": "a2",
          "content": "A little bit",
          "content_type": "text/plain"
        },
        {
          "position": 3,
          "value": "a3",
          "content": "Somewhat",
          "content_type": "text/plain"
        },
        {
          "position": 4,
          "value": "a4",
          "content": "Quite a bit",
          "content_type": "text/plain"
        },
        {
          "position": 5,
          "value": "a5",
          "content": "Very much",
          "content_type": "text/plain"
        }
      ]
    },
    {
      "value": "q2",
      "position": 2,
      "content": "In the past 7 days:\n\nI had trouble staying asleep",
      "content_type": "text/plain",
      "question_type": "pick-one",
      "style_class": "light-style",
      "options": [
        {
          "position": 1,
          "value": "a1",
          "content": "Not at all",
          "content_type": "text/plain"
        },
        {
          "position": 2,
          "value": "a2",
          "content": "A little bit",
          "content_type": "text/plain"
        },
        {
          "position": 3,
          "value": "a3",
          "content": "Somewhat",
          "content_type": "text/plain"
        },
        {
          "position": 4,
          "value": "a4",
          "content": "Quite a bit",
          "content_type": "text/plain"
        },
        {
          "position": 5,
          "value": "a5",
          "content": "Very much",
          "content_type": "text/plain"
        }
      ]
    },
    {
      "value": "q3",
      "position": 3,
      "content": "In the past 7 days:\n\nI had a problem with my sleep",
      "content_type": "text/plain",
      "question_type": "pick-one",
      "style_class": "light-style",
      "options": [
        {
          "position": 1,
          "value": "a1",
          "content": "Not at all",
          "content_type": "text/plain"
        },
        {
          "position": 2,
          "value": "a2",
          "content": "A little bit",
          "content_type": "text/plain"
        },
        {
          "position": 3,
          "value": "a3",
          "content": "Somewhat",
          "content_type": "text/plain"
        },
        {
          "position": 4,
          "value": "a4",
          "content": "Quite a bit",
          "content_type": "text/plain"
        },
        {
          "position": 5,
          "value": "a5",
          "content": "Very much",
          "content_type": "text/plain"
        }
      ]
    },
    {
      "value": "q4",
      "position": 4,
      "content": "In the past 7 days:\n\nI had difficulty falling asleep",
      "content_type": "text/plain",
      "question_type": "pick-one",
      "style_class": "light-style",
      "options": [
        {
          "position": 1,
          "value": "a1",
          "content": "Not at all",
          "content_type": "text/plain"
        },
        {
          "position": 2,
          "value": "a2",
          "content": "A little bit",
          "content_type": "text/plain"
        },
        {
          "position": 3,
          "value": "a3",
          "content": "Somewhat",
          "content_type": "text/plain"
        },
        {
          "position": 4,
          "value": "a4",
          "content": "Quite a bit",
          "content_type": "text/plain"
        },
        {
          "position": 5,
          "value": "a5",
          "content": "Very much",
          "content_type": "text/plain"
        }
      ]
    },
    {
      "value": "q5",
      "position": 5,
      "content": "In the past 7 days:\n\nMy sleep quality was...",
      "content_type": "text/plain",
      "question_type": "pick-one",
      "style_class": "light-style",
      "options": [
        {
          "position": 1,
          "value": "a1",
          "content": "Very poor",
          "content_type": "text/plain"
        },
        {
          "position": 2,
          "value": "a2",
          "content": "Poor",
          "content_type": "text/plain"
        },
        {
          "position": 3,
          "value": "a3",
          "content": "Fair",
          "content_type": "text/plain"
        },
        {
          "position": 4,
          "value": "a4",
          "content": "Good",
          "content_type": "text/plain"
        },
        {
          "position": 5,
          "value": "a5",
          "content": "Very good",
          "content_type": "text/plain"
        }
      ]
    }
  ]
}
